Adder_Sequential/trace.vcd
$date
     Jul 25, 2023       03:18:27
$end

$version
 SystemC 2.3.3-Accellera --- Jul 22 2023 01:28:55
$end

$timescale
     1 ps
$end

$scope module SystemC $end
$var wire    1  aaaaa  clock       $end
$var wire   32  aaaab  srcA_i [31:0]  $end
$var wire   32  aaaac  srcB_i [31:0]  $end
$var wire    1  aaaad  reset_n       $end
$var wire   32  aaaae  result_o [31:0]  $end
$upscope $end
$enddefinitions  $end

$comment
All initial values are dumped below at time 0 sec = 0 timescale units.
$end

$dumpvars
1aaaaa
b0 aaaab
b0 aaaac
0aaaad
b0 aaaae
$end

#5000
0aaaaa

#10000
1aaaaa

#15000
0aaaaa

#20000
1aaaaa
b100001 aaaab
b1010000 aaaac
1aaaad

#25000
0aaaaa

#30000
1aaaaa
b101000 aaaab
b111100 aaaac
b1110001 aaaae

#35000
0aaaaa

#40000
1aaaaa
b1010 aaaab
b100000 aaaac
b1100100 aaaae

#45000
0aaaaa

#50000
1aaaaa
b1100011 aaaab
b101 aaaac
b101010 aaaae

#55000
0aaaaa

#60000
1aaaaa
b1001100 aaaab
b1001100 aaaac
b1101000 aaaae

#65000
0aaaaa

#70000
1aaaaa
b1010000 aaaab
b11 aaaac
b10011000 aaaae

#75000
0aaaaa

#80000
1aaaaa
b1000 aaaab
b1000000 aaaac
b1010011 aaaae

#85000
0aaaaa

#90000
1aaaaa
b101010 aaaab
b1001010 aaaac
b1001000 aaaae

#95000
0aaaaa

#100000
1aaaaa
b10101 aaaab
b11111 aaaac
b1110100 aaaae

#105000
0aaaaa

#110000
1aaaaa
b1010111 aaaab
b1000 aaaac
b110100 aaaae

#115000
0aaaaa

#120000
1aaaaa
b110001 aaaab
b110000 aaaac
b1011111 aaaae

#125000
0aaaaa

#130000
1aaaaa
b111010 aaaab
b10011 aaaac
b1100001 aaaae

#135000
0aaaaa

#140000
1aaaaa
b100010 aaaab
b11000 aaaac
b1001101 aaaae

#145000
0aaaaa

#150000
1aaaaa
b1001010 aaaab
b101010 aaaac
b111010 aaaae

#155000
0aaaaa

#160000
1aaaaa
b1010000 aaaab
b1001 aaaac
b1110100 aaaae

#165000
0aaaaa

#170000
1aaaaa
b1001010 aaaab
b111111 aaaac
b1011001 aaaae

#175000
0aaaaa

#180000
1aaaaa
b101110 aaaab
b11010 aaaac
b10001001 aaaae

#185000
0aaaaa

#190000
1aaaaa
b1111 aaaab
b110010 aaaac
b1001000 aaaae

#195000
0aaaaa

#200000
1aaaaa
b11 aaaab
b110001 aaaac
b1000001 aaaae

#205000
0aaaaa

#210000
1aaaaa
b100001 aaaab
b101011 aaaac
b110100 aaaae

#215000
0aaaaa

#220000
1aaaaa
b1011000 aaaab
b1001101 aaaac
b1001100 aaaae

#225000
0aaaaa

#230000
1aaaaa
b1011 aaaab
b10 aaaac
b10100101 aaaae

#235000
0aaaaa

#240000
1aaaaa
b1100001 aaaab
b100110 aaaac
b1101 aaaae

#245000
0aaaaa

#250000
1aaaaa
b101100 aaaab
b10111 aaaac
b10000111 aaaae

#255000
0aaaaa

#260000
1aaaaa
b100110 aaaab
b1101 aaaac
b1000011 aaaae

#265000
0aaaaa

#270000
1aaaaa
b1000100 aaaab
b111011 aaaac
b110011 aaaae

#275000
0aaaaa

#280000
1aaaaa
b111110 aaaab
b1001101 aaaac
b1111111 aaaae

#285000
0aaaaa

#290000
1aaaaa
b1010011 aaaab
b1010000 aaaac
b10001011 aaaae

#295000
0aaaaa

#300000
1aaaaa
b110111 aaaab
b1010010 aaaac
b10100011 aaaae

#305000
0aaaaa

#310000
1aaaaa
b1101 aaaab
b11100 aaaac
b10001001 aaaae

#315000
0aaaaa

#320000
1aaaaa
b1000101 aaaab
b10011 aaaac
b101001 aaaae

#325000
0aaaaa

#330000
1aaaaa
b1000110 aaaab
b11001 aaaac
b1011000 aaaae

#335000
0aaaaa

#340000
1aaaaa
b10000 aaaab
b100011 aaaac
b1011111 aaaae

#345000
0aaaaa

#350000
1aaaaa
b11110 aaaab
b1010001 aaaac
b110011 aaaae

#355000
0aaaaa

#360000
1aaaaa
b0 aaaab
b111110 aaaac
b1101111 aaaae

#365000
0aaaaa

#370000
1aaaaa
b101101 aaaab
b111011 aaaac
b111110 aaaae

#375000
0aaaaa

#380000
1aaaaa
b1011001 aaaab
b11111 aaaac
b1101000 aaaae

#385000
0aaaaa

#390000
1aaaaa
b1011111 aaaab
b1 aaaac
b1111000 aaaae

#395000
0aaaaa

#400000
1aaaaa
b111001 aaaab
b110010 aaaac
b1100000 aaaae

#405000
0aaaaa

#410000
1aaaaa
b101010 aaaab
b101001 aaaac
b1101011 aaaae

#415000
0aaaaa

#420000
1aaaaa
b100111 aaaab
b1001001 aaaac
b1010011 aaaae

#425000
0aaaaa

#430000
1aaaaa
b10101 aaaab
b101000 aaaac
b1110000 aaaae

#435000
0aaaaa

#440000
1aaaaa
b1100010 aaaab
b11 aaaac
b111101 aaaae

#445000
0aaaaa

#450000
1aaaaa
b1000 aaaab
b111 aaaac
b1100101 aaaae

#455000
0aaaaa

#460000
1aaaaa
b100 aaaab
b11101 aaaac
b1111 aaaae

#465000
0aaaaa

#470000
1aaaaa
b1000110 aaaab
b111110 aaaac
b100001 aaaae

#475000
0aaaaa

#480000
1aaaaa
b110101 aaaab
b10000 aaaac
b10000100 aaaae

#485000
0aaaaa

#490000
1aaaaa
b1011111 aaaab
b11010 aaaac
b1000101 aaaae

#495000
0aaaaa

#500000
1aaaaa
b1010110 aaaab
b10011 aaaac
b1111001 aaaae

#505000
0aaaaa

#510000
1aaaaa
b1010000 aaaab
b1001111 aaaac
b1101001 aaaae

#515000
0aaaaa

#520000
1aaaaa
b110001 aaaab
b1000000 aaaac
b10011111 aaaae

#525000
0aaaaa

#530000
1aaaaa
b111110 aaaab
b11000 aaaac
b1110001 aaaae

#535000
0aaaaa

#540000
1aaaaa
b111000 aaaab
b110101 aaaac
b1010110 aaaae

#545000
0aaaaa

#550000
1aaaaa
b101011 aaaab
b100 aaaac
b1101101 aaaae

#555000
0aaaaa

#560000
1aaaaa
b110011 aaaab
b111010 aaaac
b101111 aaaae

#565000
0aaaaa

#570000
1aaaaa
b1010000 aaaab
b100100 aaaac
b1101101 aaaae

#575000
0aaaaa

#580000
1aaaaa
b1011100 aaaab
b101100 aaaac
b1110100 aaaae

#585000
0aaaaa

#590000
1aaaaa
b1001011 aaaab
b1100010 aaaac
b10001000 aaaae

#595000
0aaaaa

#600000
1aaaaa
b110011 aaaab
b1000000 aaaac
b10101101 aaaae

#605000
0aaaaa

#610000
1aaaaa
b1011101 aaaab
b1 aaaac
b1110011 aaaae

#615000
0aaaaa

#620000
1aaaaa
b0 aaaab
b11101 aaaac
b1011110 aaaae

#625000
0aaaaa

#630000
1aaaaa
b1000110 aaaab
b1001000 aaaac
b11101 aaaae

#635000
0aaaaa

#640000
1aaaaa
b110110 aaaab
b1001001 aaaac
b10001110 aaaae

#645000
0aaaaa

#650000
1aaaaa
b110111 aaaab
b10011 aaaac
b1111111 aaaae

#655000
0aaaaa

#660000
1aaaaa
b111101 aaaab
b1000100 aaaac
b1001010 aaaae

#665000
0aaaaa

#670000
1aaaaa
b1100001 aaaab
b1010111 aaaac
b10000001 aaaae

#675000
0aaaaa

#680000
1aaaaa
b1011010 aaaab
b101110 aaaac
b10111000 aaaae

#685000
0aaaaa

#690000
1aaaaa
b10 aaaab
b100111 aaaac
b10001000 aaaae

#695000
0aaaaa

#700000
1aaaaa
b100000 aaaab
b10111 aaaac
b101001 aaaae

#705000
0aaaaa

#710000
1aaaaa
b1001110 aaaab
b1001111 aaaac
b110111 aaaae

#715000
0aaaaa

#720000
1aaaaa
b10010 aaaab
b1101 aaaac
b10011101 aaaae

#725000
0aaaaa

#730000
1aaaaa
b1000100 aaaab
b110010 aaaac
b11111 aaaae

#735000
0aaaaa

#740000
1aaaaa
b100110 aaaab
b1010100 aaaac
b1110110 aaaae

#745000
0aaaaa

#750000
1aaaaa
b100 aaaab
b1010011 aaaac
b1111010 aaaae

#755000
0aaaaa

#760000
1aaaaa
b110010 aaaab
b1000100 aaaac
b1010111 aaaae

#765000
0aaaaa

#770000
1aaaaa
b10110 aaaab
b111000 aaaac
b1110110 aaaae

#775000
0aaaaa

#780000
1aaaaa
b1000000 aaaab
b10 aaaac
b1001110 aaaae

#785000
0aaaaa

#790000
1aaaaa
b10011 aaaab
b111 aaaac
b1000010 aaaae

#795000
0aaaaa

#800000
1aaaaa
b1011111 aaaab
b100110 aaaac
b11010 aaaae

#805000
0aaaaa

#810000
1aaaaa
b100010 aaaab
b1011110 aaaac
b10000101 aaaae

#815000
0aaaaa

#820000
1aaaaa
b1011000 aaaab
b1011101 aaaac
b10000000 aaaae

#825000
0aaaaa

#830000
1aaaaa
b1011110 aaaab
b1001100 aaaac
b10110101 aaaae

#835000
0aaaaa

#840000
1aaaaa
b0 aaaab
b111110 aaaac
b10101010 aaaae

#845000
0aaaaa

#850000
1aaaaa
b11111 aaaab
b111100 aaaac
b111110 aaaae

#855000
0aaaaa

#860000
1aaaaa
b110111 aaaab
b1100000 aaaac
b1011011 aaaae

#865000
0aaaaa

#870000
1aaaaa
b110101 aaaab
b100001 aaaac
b10010111 aaaae

#875000
0aaaaa

#880000
1aaaaa
b10111 aaaab
b1011101 aaaac
b1010110 aaaae

#885000
0aaaaa

#890000
1aaaaa
b1001111 aaaab
b1011011 aaaac
b1110100 aaaae

#895000
0aaaaa

#900000
1aaaaa
b100111 aaaab
b100101 aaaac
b10101010 aaaae

#905000
0aaaaa

#910000
1aaaaa
b11001 aaaab
b11010 aaaac
b1001100 aaaae

#915000
0aaaaa

#920000
1aaaaa
b111 aaaab
b110011 aaaac
b110011 aaaae

#925000
0aaaaa

#930000
1aaaaa
b10001 aaaab
b1101 aaaac
b111010 aaaae

#935000
0aaaaa

#940000
1aaaaa
b1011110 aaaab
b1011000 aaaac
b11110 aaaae

#945000
0aaaaa

#950000
1aaaaa
b1101 aaaab
b10110110 aaaae

#955000
0aaaaa

#960000
1aaaaa
b1011000 aaaab
b1101 aaaac
b1100101 aaaae

#965000
0aaaaa

#970000
1aaaaa
b1101 aaaab
b1000010 aaaac

#975000
0aaaaa

#980000
1aaaaa
b1000100 aaaab
b1010011 aaaac
b1001111 aaaae

#985000
0aaaaa

#990000
1aaaaa
b101001 aaaab
b1010 aaaac
b10010111 aaaae

#995000
0aaaaa

#1000000
1aaaaa
b1000110 aaaab
b1000001 aaaac
b110011 aaaae

#1005000
0aaaaa

#1010000
1aaaaa
b1100010 aaaab
b10010 aaaac
b10000111 aaaae

#1015000
0aaaaa

#1020000
1aaaaa
b0 aaaab
b1111 aaaac
b1110100 aaaae

#1025000
0aaaaa

#1030000
1aaaaa
b10 aaaab
b0 aaaac
b1111 aaaae

#1035000
0aaaaa

#1040000
1aaaaa
b110111 aaaab
b11010 aaaac
b10 aaaae

#1045000
0aaaaa

#1050000
1aaaaa
b1111 aaaab
b1100000 aaaac
b1010001 aaaae

#1055000
0aaaaa

#1060000
1aaaaa
b10101 aaaab
b1010001 aaaac
b1101111 aaaae

#1065000
0aaaaa

#1070000
1aaaaa
b1001111 aaaab
b101011 aaaac
b1100110 aaaae

#1075000
0aaaaa

#1080000
1aaaaa
b11101 aaaab
b110000 aaaac
b1111010 aaaae

#1085000
0aaaaa

#1090000
1aaaaa
b1011111 aaaab
b1001101 aaaac
b1001101 aaaae

#1095000
0aaaaa

#1100000
1aaaaa
b1011001 aaaab
b11000 aaaac
b10101100 aaaae

#1105000
0aaaaa

#1110000
1aaaaa
b1011101 aaaab
b1001010 aaaac
b1110001 aaaae

#1115000
0aaaaa

#1120000
1aaaaa
b100 aaaab
b1011111 aaaac
b10100111 aaaae

#1125000
0aaaaa

#1130000
1aaaaa
b100010 aaaab
b1001111 aaaac
b1100011 aaaae

#1135000
0aaaaa

#1140000
1aaaaa
b1011011 aaaab
b101011 aaaac
b1110001 aaaae

#1145000
0aaaaa

#1150000
1aaaaa
b1001110 aaaab
b1001 aaaac
b10000110 aaaae

#1155000
0aaaaa

#1160000
1aaaaa
b1011011 aaaab
b1001111 aaaac
b1010111 aaaae

#1165000
0aaaaa

#1170000
1aaaaa
b110001 aaaab
b1001110 aaaac
b10101010 aaaae

#1175000
0aaaaa

#1180000
1aaaaa
b1001000 aaaab
b1010101 aaaac
b1111111 aaaae

#1185000
0aaaaa

#1190000
1aaaaa
b100101 aaaab
b1011111 aaaac
b10011101 aaaae

#1195000
0aaaaa

#1200000
1aaaaa
b11011 aaaab
b101010 aaaac
b10000100 aaaae

#1205000
0aaaaa

#1210000
1aaaaa
b1011000 aaaab
b101101 aaaac
b1000101 aaaae

#1215000
0aaaaa

#1220000
1aaaaa
b111111 aaaab
b1001010 aaaac
b10000101 aaaae

#1225000
0aaaaa

#1230000
1aaaaa
b100001 aaaab
b1001000 aaaac
b10001001 aaaae

#1235000
0aaaaa

#1240000
1aaaaa
b1000100 aaaab
b100000 aaaac
b1101001 aaaae

#1245000
0aaaaa

#1250000
1aaaaa
b1011000 aaaab
b110100 aaaac
b1100100 aaaae

#1255000
0aaaaa

#1260000
1aaaaa
b1000110 aaaab
b10111 aaaac
b10001100 aaaae

#1265000
0aaaaa

#1270000
1aaaaa
b1001100 aaaab
b1011010 aaaac
b1011101 aaaae

#1275000
0aaaaa

#1280000
1aaaaa
b10110 aaaab
b1010001 aaaac
b10100110 aaaae

#1285000
0aaaaa

#1290000
1aaaaa
b11001 aaaab
b100000 aaaac
b1100111 aaaae

#1295000
0aaaaa

#1300000
1aaaaa
b1010110 aaaab
b10101 aaaac
b111001 aaaae

#1305000
0aaaaa

#1310000
1aaaaa
b110110 aaaab
b110010 aaaac
b1101011 aaaae

#1315000
0aaaaa

#1320000
1aaaaa
b11111 aaaab
b10010 aaaac
b1101000 aaaae

#1325000
0aaaaa

#1330000
1aaaaa
b1010101 aaaab
b100010 aaaac
b110001 aaaae

#1335000
0aaaaa

#1340000
1aaaaa
b111000 aaaab
b110000 aaaac
b1110111 aaaae

#1345000
0aaaaa

#1350000
1aaaaa
b110 aaaab
b1001010 aaaac
b1101000 aaaae

#1355000
0aaaaa

#1360000
1aaaaa
b100011 aaaab
b111100 aaaac
b1010000 aaaae

#1365000
0aaaaa

#1370000
1aaaaa
b11010 aaaab
b101101 aaaac
b1011111 aaaae

#1375000
0aaaaa

#1380000
1aaaaa
b111010 aaaab
b111011 aaaac
b1000111 aaaae

#1385000
0aaaaa

#1390000
1aaaaa
b110001 aaaab
b10 aaaac
b1110101 aaaae

#1395000
0aaaaa

#1400000
1aaaaa
b1010000 aaaab
b1010110 aaaac
b110011 aaaae

#1405000
0aaaaa

#1410000
1aaaaa
b1011011 aaaab
b110010 aaaac
b10100110 aaaae

#1415000
0aaaaa

#1420000
1aaaaa
b111001 aaaab
b100100 aaaac
b10001101 aaaae

#1425000
0aaaaa

#1430000
1aaaaa
b1000010 aaaab
b111110 aaaac
b1011101 aaaae

#1435000
0aaaaa

#1440000
1aaaaa
b110100 aaaab
b100110 aaaac
b10000000 aaaae

#1445000
0aaaaa

#1450000
1aaaaa
b1110 aaaab
b1001011 aaaac
b1011010 aaaae

#1455000
0aaaaa

#1460000
1aaaaa
b11100 aaaab
b110001 aaaac
b1011001 aaaae

#1465000
0aaaaa

#1470000
1aaaaa
b1000001 aaaab
b10100 aaaac
b1001101 aaaae

#1475000
0aaaaa

#1480000
1aaaaa
b1011111 aaaab
b1100 aaaac
b1010101 aaaae

#1485000
0aaaaa

#1490000
1aaaaa
b1010010 aaaab
b110 aaaac
b1101011 aaaae

#1495000
0aaaaa

#1500000
1aaaaa
b101011 aaaab
b101011 aaaac
b1011000 aaaae

#1505000
0aaaaa

#1510000
1aaaaa
b11 aaaab
b10001 aaaac
b1010110 aaaae

#1515000
0aaaaa

#1520000
1aaaaa
b10011 aaaab
b1100001 aaaac
b10100 aaaae

#1525000
0aaaaa

#1530000
1aaaaa
b10000 aaaab
b1010101 aaaac
b1110100 aaaae

#1535000
0aaaaa

#1540000
1aaaaa
b1001100 aaaab
b1100000 aaaac
b1100101 aaaae

#1545000
0aaaaa

#1550000
1aaaaa
b1001 aaaab
b10110 aaaac
b10101100 aaaae

#1555000
0aaaaa

#1560000
1aaaaa
b101 aaaab
b11011 aaaac
b11111 aaaae

#1565000
0aaaaa

#1570000
1aaaaa
b10100 aaaab
b100101 aaaac
b100000 aaaae

#1575000
0aaaaa

#1580000
1aaaaa
b1010011 aaaab
b1000101 aaaac
b111001 aaaae

#1585000
0aaaaa

#1590000
1aaaaa
b110100 aaaab
b11 aaaac
b10011000 aaaae

#1595000
0aaaaa

#1600000
1aaaaa
b100000 aaaab
b1010100 aaaac
b110111 aaaae

#1605000
0aaaaa

#1610000
1aaaaa
b100001 aaaab
b1100010 aaaac
b1110100 aaaae

#1615000
0aaaaa

#1620000
1aaaaa
b100111 aaaab
b10111 aaaac
b10000011 aaaae

#1625000
0aaaaa

#1630000
1aaaaa
b1000 aaaab
b1010101 aaaac
b111110 aaaae

#1635000
0aaaaa

#1640000
1aaaaa
b11 aaaab
b1011100 aaaac
b1011101 aaaae

#1645000
0aaaaa

#1650000
1aaaaa
b1100000 aaaab
b111110 aaaac
b1011111 aaaae

#1655000
0aaaaa

#1660000
1aaaaa
b101001 aaaab
b100000 aaaac
b10011110 aaaae

#1665000
0aaaaa

#1670000
1aaaaa
b100101 aaaab
b1010001 aaaac
b1001001 aaaae

#1675000
0aaaaa

#1680000
1aaaaa
b1111 aaaab
b1011011 aaaac
b1110110 aaaae

#1685000
0aaaaa

#1690000
1aaaaa
b110110 aaaab
b1010100 aaaac
b1101010 aaaae

#1695000
0aaaaa

#1700000
1aaaaa
b1100011 aaaab
b1000101 aaaac
b10001010 aaaae

#1705000
0aaaaa

#1710000
1aaaaa
b1001 aaaab
b1011001 aaaac
b10101000 aaaae

#1715000
0aaaaa

#1720000
1aaaaa
b101101 aaaab
b1100 aaaac
b1100010 aaaae

#1725000
0aaaaa

#1730000
1aaaaa
b1101 aaaab
b101001 aaaac
b111001 aaaae

#1735000
0aaaaa

#1740000
1aaaaa
b100111 aaaab
b110110 aaaae

#1745000
0aaaaa

#1750000
1aaaaa
b1010000 aaaab
b1100000 aaaac
b1010000 aaaae

#1755000
0aaaaa

#1760000
1aaaaa
b1000000 aaaab
b10 aaaac
b10110000 aaaae

#1765000
0aaaaa

#1770000
1aaaaa
b110011 aaaab
b1001000 aaaac
b1000010 aaaae

#1775000
0aaaaa

#1780000
1aaaaa
b101010 aaaab
b0 aaaac
b1111011 aaaae

#1785000
0aaaaa

#1790000
1aaaaa
b1001100 aaaab
b110010 aaaac
b101010 aaaae

#1795000
0aaaaa

#1800000
1aaaaa
b11111 aaaab
b101001 aaaac
b1111110 aaaae

#1805000
0aaaaa

#1810000
1aaaaa
b100101 aaaab
b110111 aaaac
b1001000 aaaae

#1815000
0aaaaa

#1820000
1aaaaa
b10110 aaaab
b101110 aaaac
b1011100 aaaae

#1825000
0aaaaa

#1830000
1aaaaa
b1001110 aaaab
b100000 aaaac
b1000100 aaaae

#1835000
0aaaaa

#1840000
1aaaaa
b11110 aaaab
b110001 aaaac
b1101110 aaaae

#1845000
0aaaaa

#1850000
1aaaaa
b11010 aaaab
b11111 aaaac
b1001111 aaaae

#1855000
0aaaaa

#1860000
1aaaaa
b1001010 aaaab
b111001 aaaae

#1865000
0aaaaa

#1870000
1aaaaa
b100000 aaaab
b1011000 aaaac
b1101001 aaaae

#1875000
0aaaaa

#1880000
1aaaaa
b100010 aaaab
b101101 aaaac
b1111000 aaaae

#1885000
0aaaaa

#1890000
1aaaaa
b10100 aaaab
b11001 aaaac
b1001111 aaaae

#1895000
0aaaaa

#1900000
1aaaaa
b101100 aaaab
b1011100 aaaac
b101101 aaaae

#1905000
0aaaaa

#1910000
1aaaaa
b1100001 aaaab
b101110 aaaac
b10001000 aaaae

#1915000
0aaaaa

#1920000
1aaaaa
b110 aaaab
b100001 aaaac
b10001111 aaaae

#1925000
0aaaaa

#1930000
1aaaaa
b1001111 aaaab
b11001 aaaac
b100111 aaaae

#1935000
0aaaaa

#1940000
1aaaaa
b100010 aaaab
b101110 aaaac
b1101000 aaaae

#1945000
0aaaaa

#1950000
1aaaaa
b1 aaaab
b1010001 aaaac
b1010000 aaaae

#1955000
0aaaaa

#1960000
1aaaaa
b1000110 aaaab
b111011 aaaac
b1010010 aaaae

#1965000
0aaaaa

#1970000
1aaaaa
b1 aaaab
b1000011 aaaac
b10000001 aaaae

#1975000
0aaaaa

#1980000
1aaaaa
b110000 aaaab
b110111 aaaac
b1000100 aaaae

#1985000
0aaaaa

#1990000
1aaaaa
b1010000 aaaab
b1011111 aaaac
b1100111 aaaae

#1995000
0aaaaa

#2000000
1aaaaa
b1001 aaaab
b110101 aaaac
b10101111 aaaae

#2005000
0aaaaa

#2010000
1aaaaa
b10111 aaaab
b10010 aaaac
b111110 aaaae

#2015000
0aaaaa

#2020000
1aaaaa
b1001011 aaaab
b1010001 aaaac
b101001 aaaae

#2025000
0aaaaa

#2030000
1aaaaa
b1000111 aaaab
b1011001 aaaac
b10011100 aaaae

#2035000
0aaaaa

#2040000
1aaaaa
b111111 aaaab
b100100 aaaac
b10100000 aaaae

#2045000
0aaaaa

#2050000
1aaaaa
b1000000 aaaab
b1100010 aaaac
b1100011 aaaae

#2055000
0aaaaa

#2060000
1aaaaa
b10111 aaaab
b1000 aaaac
b10100010 aaaae

#2065000
0aaaaa

#2070000
1aaaaa
b1010001 aaaab
b1100001 aaaac
b11111 aaaae

#2075000
0aaaaa

#2080000
1aaaaa
b1011100 aaaab
b110100 aaaac
b10110010 aaaae

#2085000
0aaaaa

#2090000
1aaaaa
b110000 aaaab
b1011011 aaaac
b10010000 aaaae

#2095000
0aaaaa

#2100000
1aaaaa
b111010 aaaab
b11101 aaaac
b10001011 aaaae

#2105000
0aaaaa

#2110000
1aaaaa
b1001001 aaaab
b10100 aaaac
b1010111 aaaae

#2115000
0aaaaa

#2120000
1aaaaa
b10000 aaaab
b1010100 aaaac
b1011101 aaaae

#2125000
0aaaaa

#2130000
1aaaaa
b1011 aaaab
b110011 aaaac
b1100100 aaaae

#2135000
0aaaaa

#2140000
1aaaaa
b1001111 aaaab
b101100 aaaac
b111110 aaaae

#2145000
0aaaaa

#2150000
1aaaaa
b1000001 aaaab
b100000 aaaac
b1111011 aaaae

#2155000
0aaaaa

#2160000
1aaaaa
b11101 aaaab
b1100001 aaaae

#2165000
0aaaaa

#2170000
1aaaaa
b100 aaaab
b10100 aaaac
b111101 aaaae

#2175000
0aaaaa

#2180000
1aaaaa
b11110 aaaab
b1001101 aaaac
b11000 aaaae

#2185000
0aaaaa

#2190000
1aaaaa
b1010011 aaaab
b101010 aaaac
b1101011 aaaae

#2195000
0aaaaa

#2200000
1aaaaa
b111100 aaaab
b11 aaaac
b1111101 aaaae

#2205000
0aaaaa

#2210000
1aaaaa
b10010 aaaab
b1011100 aaaac
b111111 aaaae

#2215000
0aaaaa

#2220000
1aaaaa
b1001000 aaaab
b10101 aaaac
b1101110 aaaae

#2225000
0aaaaa

#2230000
1aaaaa
b11001 aaaab
b10011 aaaac
b1011101 aaaae

#2235000
0aaaaa

#2240000
1aaaaa
b1000010 aaaab
b101100 aaaae

#2245000
0aaaaa

#2250000
1aaaaa
b100 aaaab
b1001101 aaaac
b1010101 aaaae

#2255000
0aaaaa

#2260000
1aaaaa
b101101 aaaab
b110110 aaaac
b1010001 aaaae

#2265000
0aaaaa

#2270000
1aaaaa
b1011000 aaaab
b101010 aaaac
b1100011 aaaae

#2275000
0aaaaa

#2280000
1aaaaa
b11111 aaaab
b11111 aaaac
b10000010 aaaae

#2285000
0aaaaa

#2290000
1aaaaa
b1010010 aaaab
b1000101 aaaac
b111110 aaaae

#2295000
0aaaaa

#2300000
1aaaaa
b100 aaaab
b101111 aaaac
b10010111 aaaae

#2305000
0aaaaa

#2310000
1aaaaa
b111 aaaab
b100110 aaaac
b110011 aaaae

#2315000
0aaaaa

#2320000
1aaaaa
b111001 aaaab
b100000 aaaac
b101101 aaaae

#2325000
0aaaaa

#2330000
1aaaaa
b1111 aaaab
b11011 aaaac
b1011001 aaaae

#2335000
0aaaaa

#2340000
1aaaaa
b1011101 aaaab
b101100 aaaac
b101010 aaaae

#2345000
0aaaaa

#2350000
1aaaaa
b1001110 aaaab
b0 aaaac
b10001001 aaaae

#2355000
0aaaaa

#2360000
1aaaaa
b1011001 aaaab
b101001 aaaac
b1001110 aaaae

#2365000
0aaaaa

#2370000
1aaaaa
b101 aaaab
b1011101 aaaac
b10000010 aaaae

#2375000
0aaaaa

#2380000
1aaaaa
b10011 aaaab
b110110 aaaac
b1100010 aaaae

#2385000
0aaaaa

#2390000
1aaaaa
b1000100 aaaab
b1011011 aaaac
b1001001 aaaae

#2395000
0aaaaa

#2400000
1aaaaa
b1010111 aaaab
b1000011 aaaac
b10011111 aaaae

#2405000
0aaaaa

#2410000
1aaaaa
b111 aaaab
b110001 aaaac
b10011010 aaaae

#2415000
0aaaaa

#2420000
1aaaaa
b1100011 aaaab
b110100 aaaac
b111000 aaaae

#2425000
0aaaaa

#2430000
1aaaaa
b1010101 aaaab
b1001111 aaaac
b10010111 aaaae

#2435000
0aaaaa

#2440000
1aaaaa
b11100 aaaab
b1000110 aaaac
b10100100 aaaae

#2445000
0aaaaa

#2450000
1aaaaa
b1011010 aaaab
b101 aaaac
b1100010 aaaae

#2455000
0aaaaa

#2460000
1aaaaa
b1011110 aaaab
b111000 aaaac
b1011111 aaaae

#2465000
0aaaaa

#2470000
1aaaaa
b1011111 aaaab
b1000011 aaaac
b10010110 aaaae

#2475000
0aaaaa

#2480000
1aaaaa
b1000001 aaaab
b1110 aaaac
b10100010 aaaae

#2485000
0aaaaa

#2490000
1aaaaa
b1011101 aaaab
b1010111 aaaac
b1001111 aaaae

#2495000
0aaaaa

#2500000
1aaaaa
b1001 aaaab
b10000 aaaac
b10110100 aaaae

#2505000
0aaaaa

#2510000
1aaaaa
b100000 aaaab
b1000100 aaaac
b11001 aaaae

#2515000
0aaaaa

#2520000
1aaaaa
b1001011 aaaab
b101000 aaaac
b1100100 aaaae

#2525000
0aaaaa

#2530000
1aaaaa
b10011 aaaab
b110011 aaaac
b1110011 aaaae

#2535000
0aaaaa

#2540000
1aaaaa
b1011001 aaaab
b1000 aaaac
b1000110 aaaae

#2545000
0aaaaa

#2550000
1aaaaa
b0 aaaab
b111 aaaac
b1100001 aaaae

#2555000
0aaaaa

#2560000
1aaaaa
b101111 aaaab
b1000111 aaaac
b111 aaaae

#2565000
0aaaaa

#2570000
1aaaaa
b1011101 aaaab
b1011 aaaac
b1110110 aaaae

#2575000
0aaaaa

#2580000
1aaaaa
b111001 aaaab
b10011 aaaac
b1101000 aaaae

#2585000
0aaaaa

#2590000
1aaaaa
b111010 aaaab
b1011000 aaaac
b1001100 aaaae

#2595000
0aaaaa

#2600000
1aaaaa
b111111 aaaab
b1000100 aaaac
b10010010 aaaae

#2605000
0aaaaa

#2610000
1aaaaa
b1001011 aaaab
b101 aaaac
b10000011 aaaae

#2615000
0aaaaa

#2620000
1aaaaa
b110010 aaaab
b110 aaaac
b1010000 aaaae

#2625000
0aaaaa

#2630000
1aaaaa
b11110 aaaab
b111010 aaaac
b111000 aaaae

#2635000
0aaaaa

#2640000
1aaaaa
b1000000 aaaab
b1010001 aaaac
b1011000 aaaae

#2645000
0aaaaa

#2650000
1aaaaa
b1001101 aaaab
b110101 aaaac
b10010001 aaaae

#2655000
0aaaaa

#2660000
1aaaaa
b110111 aaaab
b101100 aaaac
b10000010 aaaae

#2665000
0aaaaa

#2670000
1aaaaa
b1000011 aaaab
b111100 aaaac
b1100011 aaaae

#2675000
0aaaaa

#2680000
1aaaaa
b1010110 aaaab
b1011101 aaaac
b1111111 aaaae

#2685000
0aaaaa

#2690000
1aaaaa
b111011 aaaab
b1101 aaaac
b10110011 aaaae

#2695000
0aaaaa

#2700000
1aaaaa
b1001101 aaaab
b11011 aaaac
b1001000 aaaae

#2705000
0aaaaa

#2710000
1aaaaa
b11011 aaaab
b1101000 aaaae

#2715000
0aaaaa

#2720000
1aaaaa
b100011 aaaab
b1010000 aaaac
b110110 aaaae

#2725000
0aaaaa

#2730000
1aaaaa
b1011000 aaaab
b1000 aaaac
b1110011 aaaae

#2735000
0aaaaa

#2740000
1aaaaa
b100 aaaab
b111101 aaaac
b1100000 aaaae

#2745000
0aaaaa

#2750000
1aaaaa
b11001 aaaab
b1011100 aaaac
b1000001 aaaae

#2755000
0aaaaa

#2760000
1aaaaa
b1000 aaaab
b111101 aaaac
b1110101 aaaae

#2765000
0aaaaa

#2770000
1aaaaa
b1000011 aaaab
b100001 aaaac
b1000101 aaaae

#2775000
0aaaaa

#2780000
1aaaaa
b1001011 aaaab
b1100000 aaaac
b1100100 aaaae

#2785000
0aaaaa

#2790000
1aaaaa
b11000 aaaab
b1001000 aaaac
b10101011 aaaae

#2795000
0aaaaa

#2800000
1aaaaa
b110011 aaaab
b11000 aaaac
b1100000 aaaae

#2805000
0aaaaa

#2810000
1aaaaa
b1100011 aaaab
b1011011 aaaac
b1001011 aaaae

#2815000
0aaaaa

#2820000
1aaaaa
b1011011 aaaab
b11111 aaaac
b10111110 aaaae

#2825000
0aaaaa

#2830000
1aaaaa
b1000010 aaaab
b111101 aaaac
b1111010 aaaae

#2835000
0aaaaa

#2840000
1aaaaa
b101100 aaaab
b1100 aaaac
b1111111 aaaae

#2845000
0aaaaa

#2850000
1aaaaa
b101101 aaaab
b111011 aaaac
b111000 aaaae

#2855000
0aaaaa

#2860000
1aaaaa
b11001 aaaab
b1001100 aaaac
b1101000 aaaae

