Lab4_640Point/RESULT.vcd
$date
     Apr 03, 2024       23:43:24
$end

$version
 SystemC 2.3.4-Accellera --- Mar  4 2024 05:28:24
$end

$timescale
     1 ps
$end

$scope module SystemC $end
$var wire    1  aaaaa  clk       $end
$var wire    1  aaaab  rst       $end
$var wire   32  aaaac  x [31:0]  $end
$var wire   32  aaaad  y [31:0]  $end
$upscope $end
$enddefinitions  $end

$comment
All initial values are dumped below at time 0 sec = 0 timescale units.
$end

$dumpvars
1aaaaa
0aaaab
b0 aaaac
b0 aaaad
$end

#2500
0aaaaa

#5000
1aaaaa

#7500
0aaaaa

#10000
1aaaaa
1aaaab
b100000000000000000000000000 aaaac
b1111000011110000000000 aaaad

#12500
0aaaaa

#15000
1aaaaa
b101111001101110001110010101 aaaac
b100101010001101111011101 aaaad

#17500
0aaaaa

#20000
1aaaaa
b10100110111000101011101100 aaaac
b101111000110000000011110 aaaad

#22500
0aaaaa

#25000
1aaaaa
b100011000110110110001001001 aaaac
b111111100111010101001001 aaaad

#27500
0aaaaa

#30000
1aaaaa
b110011001100110100101111010 aaaac
b1010111101101010101110111 aaaad

#32500
0aaaaa

#35000
1aaaaa
b11000110100011100010110010 aaaac
b1100011011000110101010011 aaaad

#37500
0aaaaa

#40000
1aaaaa
b100110000000100010110100110 aaaac
b1110101010001100010101100 aaaad

#42500
0aaaaa

#45000
1aaaaa
b110110111000111110100010010 aaaac
b10001111000110101011101011 aaaad

#47500
0aaaaa

#50000
1aaaaa
b11100011101011101010110110 aaaac
b10011100011111110100111001 aaaad

#52500
0aaaaa

#55000
1aaaaa
b101000100000101011010010111 aaaac
b10101111100011111001000001 aaaad

#57500
0aaaaa

#60000
1aaaaa
b111010000110001000010100010 aaaac
b11001010111001100100101000 aaaad

#62500
0aaaaa

#65000
1aaaaa
b11111100110011111011011110 aaaac
b11011001110001010100011000 aaaad

#67500
0aaaaa

#70000
1aaaaa
b101010011100001111101001011 aaaac
b11101101101111100010000001 aaaad

#72500
0aaaaa

#75000
1aaaaa
b111100101001110011111011101 aaaac
b100001010010010001111010001 aaaad

#77500
0aaaaa

#80000
1aaaaa
b100010000101101111000010010 aaaac
b100011010010100111010111111 aaaad

#82500
0aaaaa

#85000
1aaaaa
b101011101010010001111011011 aaaac
b100101110110111110110110110 aaaad

#87500
0aaaaa

#90000
1aaaaa
b111110011011110000111000010 aaaac
b101001100010000001100000000 aaaad

#92500
0aaaaa

#95000
1aaaaa
b100011110011110000101011001 aaaac
b101001110000010111001011001 aaaad

#97500
0aaaaa

#100000
1aaaaa
b101100000100010110000100010 aaaac
b101001100100100000110110010 aaaad

#102500
0aaaaa

#105000
1aaaaa
b111111010110011001011100000 aaaac
b101100000100011110000110101 aaaad

#107500
0aaaaa

#110000
1aaaaa
b100100101011111011000011001 aaaac
b101100001010011010100111110 aaaad

#112500
0aaaaa

#115000
1aaaaa
b101011100110111000110110011 aaaac
b101011101101110101001111101 aaaad

#117500
0aaaaa

#120000
1aaaaa
b111111010111000110011000001 aaaac
b101101111110111011010101101 aaaad

#122500
0aaaaa

#125000
1aaaaa
b100100101100100111010110010 aaaac
b101101111001111111011000000 aaaad

#127500
0aaaaa

#130000
1aaaaa
b101010010001011100101100111 aaaac
b101101001010011111010100000 aaaad

#132500
0aaaaa

#135000
1aaaaa
b111110011110011000000111000 aaaac
b101111001010100010101001010 aaaad

#137500
0aaaaa

#140000
1aaaaa
b100011110111010110110001100 aaaac
b101110111001000011010101100 aaaad

#142500
0aaaaa

#145000
1aaaaa
b101000000110101011011111110 aaaac
b101101110101010100100010000 aaaad

#147500
0aaaaa

#150000
1aaaaa
b111100101111110100111000010 aaaac
b101111100011000010110111001 aaaad

#152500
0aaaaa

#155000
1aaaaa
b100010010000101101000001100 aaaac
b101111000100001111111010100 aaaad

#157500
0aaaaa

#160000
1aaaaa
b100101001100001101011010000 aaaac
b101101101011111010111010010 aaaad

#162500
0aaaaa

#165000
1aaaaa
b111010010001111011111101100 aaaac
b101111000110111111010110001 aaaad

#167500
0aaaaa

#170000
1aaaaa
b11111111111111111111111111 aaaac
b101110011011000101110111010 aaaad

#172500
0aaaaa

#175000
1aaaaa
b100001101010010101001011100 aaaac
b101100101110110001100001001 aaaad

#177500
0aaaaa

#180000
1aaaaa
b110111001101101110101100011 aaaac
b101101110111110101000110000 aaaad

#182500
0aaaaa

#185000
1aaaaa
b11101001110111101101100001 aaaac
b101100111111111111000000100 aaaad

#187500
0aaaaa

#190000
1aaaaa
b11101101011100011000000111 aaaac
b101011000001001110110000010 aaaad

#192500
0aaaaa

#195000
1aaaaa
b110011101110010000100011000 aaaac
b101011111001110101100111001 aaaad

#197500
0aaaaa

#200000
1aaaaa
b11010001001001001100111110 aaaac
b101010111000000101101110001 aaaad

#202500
0aaaaa

#205000
1aaaaa
b11001011011111111100111001 aaaac
b101000101001010100100001010 aaaad

#207500
0aaaaa

#210000
1aaaaa
b110000000000000000000000000 aaaac
b101001010011110111110011111 aaaad

#212500
0aaaaa

#215000
1aaaaa
b10110111011010011110100100 aaaac
b101000001011000010101001111 aaaad

#217500
0aaaaa

#220000
1aaaaa
b10101001000110001011100011 aaaac
b100101101111011010111000101 aaaad

#222500
0aaaaa

#225000
1aaaaa
b101100010000001010011001011 aaaac
b100110001110111111110001100 aaaad

#227500
0aaaaa

#230000
1aaaaa
b10011110010101011100010100 aaaac
b100101000010100001101110111 aaaad

#232500
0aaaaa

#235000
1aaaaa
b10000111111001110100110110 aaaac
b100010011101110010011101110 aaaad

#237500
0aaaaa

#240000
1aaaaa
b101000101011111101010000000 aaaac
b100010110101111110101100001 aaaad

#242500
0aaaaa

#245000
1aaaaa
b10000111100010000001111111 aaaac
b100001101001101111110111111 aaaad

#247500
0aaaaa

#250000
1aaaaa
b1101001100001101110011110 aaaac
b11111000000000000001001100 aaaad

#252500
0aaaaa

#255000
1aaaaa
b100101011111110111100000011 aaaac
b11111010100101100110011100 aaaad

#257500
0aaaaa

#260000
1aaaaa
b1110100100000011100000011 aaaac
b11110001100110011010111011 aaaad

#262500
0aaaaa

#265000
1aaaaa
b1001111011011001000101111 aaaac
b11011100010010100001001001 aaaad

#267500
0aaaaa

#270000
1aaaaa
b100010110110111101011001111 aaaac
b11011110111011111011001100 aaaad

#272500
0aaaaa

#275000
1aaaaa
b1100110100011110001111101 aaaac
b11010111000000001000100000 aaaad

#277500
0aaaaa

#280000
1aaaaa
b111010110100100110001001 aaaac
b11000010000111110101001101 aaaad

#282500
0aaaaa

#285000
1aaaaa
b100000111010010001010111111 aaaac
b11000101010011101001100110 aaaad

#287500
0aaaaa

#290000
1aaaaa
b1011110101101011110100100 aaaac
b10111110111010000110010101 aaaad

#292500
0aaaaa

#295000
1aaaaa
b101100101001100111000001 aaaac
b10101010111100100100001110 aaaad

#297500
0aaaaa

#300000
1aaaaa
b11111110000010100000101110 aaaac
b10101111000110011100100100 aaaad

#302500
0aaaaa

#305000
1aaaaa
b1011101101001100111001110 aaaac
b10101010101010011010101101 aaaad

#307500
0aaaaa

#310000
1aaaaa
b100101011111011000011001 aaaac
b10011000000010110010110001 aaaad

#312500
0aaaaa

#315000
1aaaaa
b11111011100101101011111011 aaaac
b10011101100001110111000111 aaaad

#317500
0aaaaa

#320000
1aaaaa
b1100011101100011110001111 aaaac
b10011011011001100011000101 aaaad

#322500
0aaaaa

#325000
1aaaaa
b100101100010110001101000 aaaac
b10001010011101100000110101 aaaad

#327500
0aaaaa

#330000
1aaaaa
b11111111111111111111111111 aaaac
b10010001100011000010001001 aaaad

#332500
0aaaaa

#335000
1aaaaa
b1110000110001011001100010 aaaac
b10010001111110010011101110 aaaad

#337500
0aaaaa

#340000
1aaaaa
b101100100111101000001111 aaaac
b10000010111100111100111001 aaaad

#342500
0aaaaa

#345000
1aaaaa
b100001010111100110101011100 aaaac
b10001011110011010100011011 aaaad

#347500
0aaaaa

#350000
1aaaaa
b10000100011011000001011000 aaaac
b10001110111010110101101100 aaaad

#352500
0aaaaa

#355000
1aaaaa
b111010001001011100000001 aaaac
b10000001111011111001010111 aaaad

#357500
0aaaaa

#360000
1aaaaa
b100011011101111110011010101 aaaac
b10001100100110000000010100 aaaad

#362500
0aaaaa

#365000
1aaaaa
b10011101110100110110101110 aaaac
b10010010011010101110000110 aaaad

#367500
0aaaaa

#370000
1aaaaa
b1001101001101011001010101 aaaac
b10000111011110001101101111 aaaad

#372500
0aaaaa

#375000
1aaaaa
b100110001010111001100110101 aaaac
b10010011110111001111101100 aaaad

#377500
0aaaaa

#380000
1aaaaa
b10111011110110001011000011 aaaac
b10011100010010010101000011 aaaad

#382500
0aaaaa

#385000
1aaaaa
b1100100100101101010000111 aaaac
b10010011010000101000111111 aaaad

#387500
0aaaaa

#390000
1aaaaa
b101001010011111101010000111 aaaac
b10100001001100010001101100 aaaad

#392500
0aaaaa

#395000
1aaaaa
b11011101000101111111111100 aaaac
b10101011111111011110101001 aaaad

#397500
0aaaaa

#400000
1aaaaa
b1111110110101101010010001 aaaac
b10100100101001110101100110 aaaad

#402500
0aaaaa

#405000
1aaaaa
b101100101101000110000000000 aaaac
b10110011110100111001011101 aaaad

#407500
0aaaaa

#410000
1aaaaa
b11111111111111111111111111 aaaac
b11000000101011010011110110 aaaad

#412500
0aaaaa

#415000
1aaaaa
b10011010010111001111111110 aaaac
b10111010101100101011110000 aaaad

#417500
0aaaaa

#420000
1aaaaa
b110000001001010010101101101 aaaac
b11001010101110001000101001 aaaad

#422500
0aaaaa

#425000
1aaaaa
b100100010111010000000000010 aaaac
b11011001001101010100011011 aaaad

#427500
0aaaaa

#430000
1aaaaa
b10110101100000010101110111 aaaac
b11010100001011101001011110 aaaad

#432500
0aaaaa

#435000
1aaaaa
b110011011011010010101110111 aaaac
b11100100100101111100011110 aaaad

#437500
0aaaaa

#440000
1aaaaa
b101000100001001110100111011 aaaac
b11110100001111010111010100 aaaad

#442500
0aaaaa

#445000
1aaaaa
b11001110101000110011001001 aaaac
b11101111101101000100110001 aaaad

#447500
0aaaaa

#450000
1aaaaa
b110110010110010100110101001 aaaac
b11111111111111101111111111 aaaad

#452500
0aaaaa

#455000
1aaaaa
b101100010001011001001010000 aaaac
b100010000010010011011001100 aaaad

#457500
0aaaaa

#460000
1aaaaa
b11100100010000001100101001 aaaac
b100001011110000001000101001 aaaad

#462500
0aaaaa

#465000
1aaaaa
b111000101110110100011111101 aaaac
b100011011011001100011011111 aaaad

#467500
0aaaaa

#470000
1aaaaa
b101111011100100111110100110 aaaac
b100101011110011110110011111 aaaad

#472500
0aaaaa

#475000
1aaaaa
b11110101000011001010100010 aaaac
b100100110110010001011100010 aaaad

#477500
0aaaaa

#480000
1aaaaa
b111010011011000010111101111 aaaac
b100110101010001010111010100 aaaad

#482500
0aaaaa

#485000
1aaaaa
b110001111001110100110011100 aaaac
b101000101010010110100001101 aaaad

#487500
0aaaaa

#490000
1aaaaa
b11111111111111111111111111 aaaac
b100111111010100001100000111 aaaad

#492500
0aaaaa

#495000
1aaaaa
b111011010011101001110010110 aaaac
b101001100001010100110100000 aaaad

#497500
0aaaaa

#500000
1aaaaa
b110011100010011100001101111 aaaac
b101011011010101101010010111 aaaad

#502500
0aaaaa

#505000
1aaaaa
b100000100011010010100000011 aaaac
b101010100000000000001010100 aaaad

#507500
0aaaaa

#510000
1aaaaa
b111011010100000100111100110 aaaac
b101011110110011001110010001 aaaad

#512500
0aaaaa

#515000
1aaaaa
b110100010010110011000110000 aaaac
b101101100101110110110111110 aaaad

#517500
0aaaaa

#520000
1aaaaa
b100000001111101011111010000 aaaac
b101100011101101001010111010 aaaad

#522500
0aaaaa

#525000
1aaaaa
b111010011010110011000111101 aaaac
b101101100001000010000010001 aaaad

#527500
0aaaaa

#530000
1aaaaa
b110100001010010100001011010 aaaac
b101111000100001010010001110 aaaad

#532500
0aaaaa

#535000
1aaaaa
b11111000101101110100111111 aaaac
b101101101100100110001110111 aaaad

#537500
0aaaaa

#540000
1aaaaa
b111000101001011011001110101 aaaac
b101110011011001011111101001 aaaad

#542500
0aaaaa

#545000
1aaaaa
b110011001011100001110000001 aaaac
b101111110000011100110100110 aaaad

#547500
0aaaaa

#550000
1aaaaa
b11101001001000010100101111 aaaac
b101110001000100101010010001 aaaad

#552500
0aaaaa

#555000
1aaaaa
b110110000100100110111001111 aaaac
b101110100001100001011100010 aaaad

#557500
0aaaaa

#560000
1aaaaa
b110001011011111100011111011 aaaac
b101111101000010100011000100 aaaad

#562500
0aaaaa

#565000
1aaaaa
b11010100000001000011111011 aaaac
b101101110000001001100001111 aaaad

#567500
0aaaaa

#570000
1aaaaa
b110010110011110010001100000 aaaac
b101101110011100011101110100 aaaad

#572500
0aaaaa

#575000
1aaaaa
b101111000011101111101111111 aaaac
b101110101100001111111001000 aaaad

#577500
0aaaaa

#580000
1aaaaa
b10111010100000010101111110 aaaac
b101100100100101111100111000 aaaad

#582500
0aaaaa

#585000
1aaaaa
b101111000000110001011001000 aaaac
b101100010011101101000110110 aaaad

#587500
0aaaaa

#590000
1aaaaa
b101100001101010100011101010 aaaac
b101100111111100101101001100 aaaad

#592500
0aaaaa

#595000
1aaaaa
b10011101111110101100110011 aaaac
b101010101010101000101010000 aaaad

#597500
0aaaaa

#600000
1aaaaa
b101010110111001110100011011 aaaac
b101010000111001000011011001 aaaad

#602500
0aaaaa

#605000
1aaaaa
b101001000100101100001011010 aaaac
b101010101000010111011101111 aaaad

#607500
0aaaaa

#610000
1aaaaa
b10000000000000000000000000 aaaac
b101000001000101011001101000 aaaad

#612500
0aaaaa

#615000
1aaaaa
b100110100100000000011000101 aaaac
b100111010101011110110010111 aaaad

#617500
0aaaaa

#620000
1aaaaa
b100101110110110110011000000 aaaac
b100111101110111101010110000 aaaad

#622500
0aaaaa

#625000
1aaaaa
b1100010001101111011100110 aaaac
b100101000111111010111011101 aaaad

#627500
0aaaaa

#630000
1aaaaa
b100010010100011100111110111 aaaac
b100100001000011100100110001 aaaad

#632500
0aaaaa

#635000
1aaaaa
b100010110001000010010011101 aaaac
b100100011101100111110110100 aaaad

#637500
0aaaaa

#640000
1aaaaa
b1000110010010001010011011 aaaac
b100001110011001000101000011 aaaad

#642500
0aaaaa

#645000
1aaaaa
b11110010101101010110100010 aaaac
b100000101011001111001100001 aaaad

#647500
0aaaaa

#650000
1aaaaa
b11111111111111111111111111 aaaac
b100000111111111011110110010 aaaad

#652500
0aaaaa

#655000
1aaaaa
b101101110000100000010010 aaaac
b11110010110001100000111110 aaaad

#657500
0aaaaa

#660000
1aaaaa
b11010110011110010100101110 aaaac
b11101001001111101010011100 aaaad

#662500
0aaaaa

#665000
1aaaaa
b11101101111010010111110010 aaaac
b11101100010001001100001111 aaaad

#667500
0aaaaa

#670000
1aaaaa
b11010000001011000111100 aaaac
b11010111101011010010000110 aaaad

#672500
0aaaaa

#675000
1aaaaa
b10111111001010100100000000 aaaac
b11001110000111100001110001 aaaad

#677500
0aaaaa

#680000
1aaaaa
b11100001000101001001110010 aaaac
b11010010000100001000111000 aaaad

#682500
0aaaaa

#685000
1aaaaa
b1100001100111111000110 aaaac
b10111110100111001010101110 aaaad

#687500
0aaaaa

#690000
1aaaaa
b10101101110100011010010111 aaaac
b10110101100000100001011110 aaaad

#692500
0aaaaa

#695000
1aaaaa
b11011010011011000101001100 aaaac
b10111010110100111011110011 aaaad

#697500
0aaaaa

#700000
1aaaaa
b101000111001100111101 aaaac
b10101000111110110010001100 aaaad

#702500
0aaaaa

#705000
1aaaaa
b10100011001000111001001011 aaaac
b10100000110000110011000100 aaaad

#707500
0aaaaa

#710000
1aaaaa
b11011010100000100111100110 aaaac
b10100111110101101001111011 aaaad

#712500
0aaaaa

#715000
1aaaaa
b101001100110100011110 aaaac
b10010111111111100111111001 aaaad

#717500
0aaaaa

#720000
1aaaaa
b10011111011101001111011100 aaaac
b10010001000000110111001101 aaaad

#722500
0aaaaa

#725000
1aaaaa
b11100001100001111010100101 aaaac
b10011010001001010011110100 aaaad

#727500
0aaaaa

#730000
1aaaaa
b1100100001111000111100 aaaac
b10001100100110110001000011 aaaad

#732500
0aaaaa

#735000
1aaaaa
b10100010101101110000100011 aaaac
b10000111000111100101001100 aaaad

#737500
0aaaaa

#740000
1aaaaa
b11101111010010000111101100 aaaac
b10010010100000001000101011 aaaad

#742500
0aaaaa

#745000
1aaaaa
b11010110001100000100001 aaaac
b10000111011101100000101001 aaaad

#747500
0aaaaa

#750000
1aaaaa
b10101100011110000010110011 aaaac
b10000011100111001001000100 aaaad

#752500
0aaaaa

#755000
1aaaaa
b100000011001100000100100000 aaaac
b10010001010100111011101101 aaaad

#757500
0aaaaa

#760000
1aaaaa
b101111001110111101011100 aaaac
b10001000110111000101010001 aaaad

#762500
0aaaaa

#765000
1aaaaa
b10111011111010100101100111 aaaac
b10000110101011001010110011 aaaad

#767500
0aaaaa

#770000
1aaaaa
b100011100010100010101001000 aaaac
b10010110101011100101011101 aaaad

#772500
0aaaaa

#775000
1aaaaa
b1001000111000001011101100 aaaac
b10010000101111100100111101 aaaad

#777500
0aaaaa

#780000
1aaaaa
b11001111111011101001011000 aaaac
b10010000001000000101010000 aaaad

#782500
0aaaaa

#785000
1aaaaa
b100111001011100011101001100 aaaac
b10100010010000110110000000 aaaad

#787500
0aaaaa

#790000
1aaaaa
b1100110011001011010000100 aaaac
b10011110101100001010111111 aaaad

#792500
0aaaaa

#795000
1aaaaa
b11100111001001001110110101 aaaac
b10011111011011101111001000 aaaad

#797500
0aaaaa

#800000
1aaaaa
b101011001000111010100010010 aaaac
b10110011011011011001001011 aaaad

#802500
0aaaaa

#805000
1aaaaa
b10000110010001110001101001 aaaac
b10110001111100100110100100 aaaad

#807500
0aaaaa

#810000
1aaaaa
b11111111111111111111111110 aaaac
b10110011101111010011111101 aaaad

#812500
0aaaaa

#815000
1aaaaa
b101111001101110001110010101 aaaac
b11001001001110001000100100 aaaad

#817500
0aaaaa

#820000
1aaaaa
b10100110111000101011101100 aaaac
b11001001011101110101011100 aaaad

#822500
0aaaaa

#825000
1aaaaa
b100011000110110110001001001 aaaac
b11001011111010010101110110 aaaad

#827500
0aaaaa

#830000
1aaaaa
b110011001100110100101111010 aaaac
b11100010011011100011110100 aaaad

#832500
0aaaaa

#835000
1aaaaa
b11000110100011100010110010 aaaac
b11100011111101110000111001 aaaad

#837500
0aaaaa

#840000
1aaaaa
b100110000000100010110100110 aaaac
b11100110100110101110000010 aaaad

#842500
0aaaaa

#845000
1aaaaa
b110110111000111110100010010 aaaac
b11111101101010000010101001 aaaad

#847500
0aaaaa

#850000
1aaaaa
b11100011101011101010110110 aaaac
b11111111111111101111111110 aaaad

#852500
0aaaaa

#855000
1aaaaa
b101000100000101011010010111 aaaac
b100000010010101011101010100 aaaad

#857500
0aaaaa

#860000
1aaaaa
b111010000110001000010100010 aaaac
b100011001011000110001111011 aaaad

#862500
0aaaaa

#865000
1aaaaa
b11111100110011111011011110 aaaac
b100011100000001101111000100 aaaad

#867500
0aaaaa

#870000
1aaaaa
b101010011100001111101001011 aaaac
b100011101100011111100001001 aaaad

#872500
0aaaaa

#875000
1aaaaa
b111100101001110011111011101 aaaac
b100110100000101001010000111 aaaad

#877500
0aaaaa

#880000
1aaaaa
b100010000101101111000010010 aaaac
b100110110100001101010100001 aaaad

#882500
0aaaaa

#885000
1aaaaa
b101011101010010001111011011 aaaac
b100110110110001010111011001 aaaad

#887500
0aaaaa

#890000
1aaaaa
b111110011011110000111000010 aaaac
b101001100010000001100000000 aaaad

#892500
0aaaaa

#895000
1aaaaa
b100011110011110000101011001 aaaac
b101001110000010111001011001 aaaad

#897500
0aaaaa

#900000
1aaaaa
b101100000100010110000100010 aaaac
b101001100100100000110110010 aaaad

#902500
0aaaaa

#905000
1aaaaa
b111111010110011001011100000 aaaac
b101100000100011110000110101 aaaad

#907500
0aaaaa

#910000
1aaaaa
b100100101011111011000011001 aaaac
b101100001010011010100111110 aaaad

#912500
0aaaaa

#915000
1aaaaa
b101011100110111000110110011 aaaac
b101011101101110101001111101 aaaad

#917500
0aaaaa

#920000
1aaaaa
b111111010111000110011000001 aaaac
b101101111110111011010101101 aaaad

#922500
0aaaaa

#925000
1aaaaa
b100100101100100111010110010 aaaac
b101101111001111111011000000 aaaad

#927500
0aaaaa

#930000
1aaaaa
b101010010001011100101100111 aaaac
b101101001010011111010100000 aaaad

#932500
0aaaaa

#935000
1aaaaa
b111110011110011000000111000 aaaac
b101111001010100010101001010 aaaad

#937500
0aaaaa

#940000
1aaaaa
b100011110111010110110001100 aaaac
b101110111001000011010101100 aaaad

#942500
0aaaaa

#945000
1aaaaa
b101000000110101011011111110 aaaac
b101101110101010100100010000 aaaad

#947500
0aaaaa

#950000
1aaaaa
b111100101111110100111000010 aaaac
b101111100011000010110111001 aaaad

#952500
0aaaaa

#955000
1aaaaa
b100010010000101101000001100 aaaac
b101111000100001111111010100 aaaad

#957500
0aaaaa

#960000
1aaaaa
b100101001100001101011010000 aaaac
b101101101011111010111010010 aaaad

#962500
0aaaaa

#965000
1aaaaa
b111010010001111011111101100 aaaac
b101111000110111111010110001 aaaad

#967500
0aaaaa

#970000
1aaaaa
b11111111111111111111111111 aaaac
b101110011011000101110111010 aaaad

#972500
0aaaaa

#975000
1aaaaa
b100001101010010101001011100 aaaac
b101100101110110001100001001 aaaad

#977500
0aaaaa

#980000
1aaaaa
b110111001101101110101100011 aaaac
b101101110111110101000110000 aaaad

#982500
0aaaaa

#985000
1aaaaa
b11101001110111101101100001 aaaac
b101100111111111111000000100 aaaad

#987500
0aaaaa

#990000
1aaaaa
b11101101011100011000000111 aaaac
b101011000001001110110000010 aaaad

#992500
0aaaaa

#995000
1aaaaa
b110011101110010000100011000 aaaac
b101011111001110101100111001 aaaad

#997500
0aaaaa

#1000000
1aaaaa
b11010001001001001100111110 aaaac
b101010111000000101101110001 aaaad

#1002500
0aaaaa

#1005000
1aaaaa
b11001011011111111100111001 aaaac
b101000101001010100100001010 aaaad

#1007500
0aaaaa

#1010000
1aaaaa
b110000000000000000000000000 aaaac
b101001010011110111110011111 aaaad

#1012500
0aaaaa

#1015000
1aaaaa
b10110111011010011110100100 aaaac
b101000001011000010101001111 aaaad

#1017500
0aaaaa

#1020000
1aaaaa
b10101001000110001011100011 aaaac
b100101101111011010111000101 aaaad

#1022500
0aaaaa

#1025000
1aaaaa
b101100010000001010011001011 aaaac
b100110001110111111110001100 aaaad

#1027500
0aaaaa

#1030000
1aaaaa
b10011110010101011100010100 aaaac
b100101000010100001101110111 aaaad

#1032500
0aaaaa

#1035000
1aaaaa
b10000111111001110100110110 aaaac
b100010011101110010011101110 aaaad

#1037500
0aaaaa

#1040000
1aaaaa
b101000101011111101010000000 aaaac
b100010110101111110101100001 aaaad

#1042500
0aaaaa

#1045000
1aaaaa
b10000111100010000001111111 aaaac
b100001101001101111110111111 aaaad

#1047500
0aaaaa

#1050000
1aaaaa
b1101001100001101110011110 aaaac
b11111000000000000001001100 aaaad

#1052500
0aaaaa

#1055000
1aaaaa
b100101011111110111100000011 aaaac
b11111010100101100110011100 aaaad

#1057500
0aaaaa

#1060000
1aaaaa
b1110100100000011100000011 aaaac
b11110001100110011010111011 aaaad

#1062500
0aaaaa

#1065000
1aaaaa
b1001111011011001000101111 aaaac
b11011100010010100001001001 aaaad

#1067500
0aaaaa

#1070000
1aaaaa
b100010110110111101011001111 aaaac
b11011110111011111011001100 aaaad

#1072500
0aaaaa

#1075000
1aaaaa
b1100110100011110001111101 aaaac
b11010111000000001000100000 aaaad

#1077500
0aaaaa

#1080000
1aaaaa
b111010110100100110001001 aaaac
b11000010000111110101001101 aaaad

#1082500
0aaaaa

#1085000
1aaaaa
b100000111010010001010111111 aaaac
b11000101010011101001100110 aaaad

#1087500
0aaaaa

#1090000
1aaaaa
b1011110101101011110100100 aaaac
b10111110111010000110010101 aaaad

#1092500
0aaaaa

#1095000
1aaaaa
b101100101001100111000001 aaaac
b10101010111100100100001110 aaaad

#1097500
0aaaaa

#1100000
1aaaaa
b11111110000010100000101110 aaaac
b10101111000110011100100100 aaaad

#1102500
0aaaaa

#1105000
1aaaaa
b1011101101001100111001110 aaaac
b10101010101010011010101101 aaaad

#1107500
0aaaaa

#1110000
1aaaaa
b100101011111011000011001 aaaac
b10011000000010110010110001 aaaad

#1112500
0aaaaa

#1115000
1aaaaa
b11111011100101101011111011 aaaac
b10011101100001110111000111 aaaad

#1117500
0aaaaa

#1120000
1aaaaa
b1100011101100011110001111 aaaac
b10011011011001100011000101 aaaad

#1122500
0aaaaa

#1125000
1aaaaa
b100101100010110001101000 aaaac
b10001010011101100000110101 aaaad

#1127500
0aaaaa

#1130000
1aaaaa
b11111111111111111111111111 aaaac
b10010001100011000010001001 aaaad

#1132500
0aaaaa

#1135000
1aaaaa
b1110000110001011001100010 aaaac
b10010001111110010011101110 aaaad

#1137500
0aaaaa

#1140000
1aaaaa
b101100100111101000001111 aaaac
b10000010111100111100111001 aaaad

#1142500
0aaaaa

#1145000
1aaaaa
b100001010111100110101011100 aaaac
b10001011110011010100011011 aaaad

#1147500
0aaaaa

#1150000
1aaaaa
b10000100011011000001011000 aaaac
b10001110111010110101101100 aaaad

#1152500
0aaaaa

#1155000
1aaaaa
b111010001001011100000001 aaaac
b10000001111011111001010111 aaaad

#1157500
0aaaaa

#1160000
1aaaaa
b100011011101111110011010101 aaaac
b10001100100110000000010100 aaaad

#1162500
0aaaaa

#1165000
1aaaaa
b10011101110100110110101110 aaaac
b10010010011010101110000110 aaaad

#1167500
0aaaaa

#1170000
1aaaaa
b1001101001101011001010101 aaaac
b10000111011110001101101111 aaaad

#1172500
0aaaaa

#1175000
1aaaaa
b100110001010111001100110101 aaaac
b10010011110111001111101100 aaaad

#1177500
0aaaaa

#1180000
1aaaaa
b10111011110110001011000011 aaaac
b10011100010010010101000011 aaaad

#1182500
0aaaaa

#1185000
1aaaaa
b1100100100101101010000111 aaaac
b10010011010000101000111111 aaaad

#1187500
0aaaaa

#1190000
1aaaaa
b101001010011111101010000111 aaaac
b10100001001100010001101100 aaaad

#1192500
0aaaaa

#1195000
1aaaaa
b11011101000101111111111100 aaaac
b10101011111111011110101001 aaaad

#1197500
0aaaaa

#1200000
1aaaaa
b1111110110101101010010001 aaaac
b10100100101001110101100110 aaaad

#1202500
0aaaaa

#1205000
1aaaaa
b101100101101000110000000000 aaaac
b10110011110100111001011101 aaaad

#1207500
0aaaaa

#1210000
1aaaaa
b11111111111111111111111111 aaaac
b11000000101011010011110110 aaaad

#1212500
0aaaaa

#1215000
1aaaaa
b10011010010111001111111110 aaaac
b10111010101100101011110000 aaaad

#1217500
0aaaaa

#1220000
1aaaaa
b110000001001010010101101101 aaaac
b11001010101110001000101001 aaaad

#1222500
0aaaaa

#1225000
1aaaaa
b100100010111010000000000010 aaaac
b11011001001101010100011011 aaaad

#1227500
0aaaaa

#1230000
1aaaaa
b10110101100000010101110111 aaaac
b11010100001011101001011110 aaaad

#1232500
0aaaaa

#1235000
1aaaaa
b110011011011010010101110111 aaaac
b11100100100101111100011110 aaaad

#1237500
0aaaaa

#1240000
1aaaaa
b101000100001001110100111011 aaaac
b11110100001111010111010100 aaaad

#1242500
0aaaaa

#1245000
1aaaaa
b11001110101000110011001001 aaaac
b11101111101101000100110001 aaaad

#1247500
0aaaaa

#1250000
1aaaaa
b110110010110010100110101001 aaaac
b11111111111111101111111111 aaaad

#1252500
0aaaaa

#1255000
1aaaaa
b101100010001011001001010000 aaaac
b100010000010010011011001100 aaaad

#1257500
0aaaaa

#1260000
1aaaaa
b11100100010000001100101001 aaaac
b100001011110000001000101001 aaaad

#1262500
0aaaaa

#1265000
1aaaaa
b111000101110110100011111101 aaaac
b100011011011001100011011111 aaaad

#1267500
0aaaaa

#1270000
1aaaaa
b101111011100100111110100110 aaaac
b100101011110011110110011111 aaaad

#1272500
0aaaaa

#1275000
1aaaaa
b11110101000011001010100010 aaaac
b100100110110010001011100010 aaaad

#1277500
0aaaaa

#1280000
1aaaaa
b111010011011000010111101111 aaaac
b100110101010001010111010100 aaaad

#1282500
0aaaaa

#1285000
1aaaaa
b110001111001110100110011100 aaaac
b101000101010010110100001101 aaaad

#1287500
0aaaaa

#1290000
1aaaaa
b11111111111111111111111111 aaaac
b100111111010100001100000111 aaaad

#1292500
0aaaaa

#1295000
1aaaaa
b111011010011101001110010110 aaaac
b101001100001010100110100000 aaaad

#1297500
0aaaaa

#1300000
1aaaaa
b110011100010011100001101111 aaaac
b101011011010101101010010111 aaaad

#1302500
0aaaaa

#1305000
1aaaaa
b100000100011010010100000011 aaaac
b101010100000000000001010100 aaaad

#1307500
0aaaaa

#1310000
1aaaaa
b111011010100000100111100110 aaaac
b101011110110011001110010001 aaaad

#1312500
0aaaaa

#1315000
1aaaaa
b110100010010110011000110000 aaaac
b101101100101110110110111110 aaaad

#1317500
0aaaaa

#1320000
1aaaaa
b100000001111101011111010000 aaaac
b101100011101101001010111010 aaaad

#1322500
0aaaaa

#1325000
1aaaaa
b111010011010110011000111101 aaaac
b101101100001000010000010001 aaaad

#1327500
0aaaaa

#1330000
1aaaaa
b110100001010010100001011010 aaaac
b101111000100001010010001110 aaaad

#1332500
0aaaaa

#1335000
1aaaaa
b11111000101101110100111111 aaaac
b101101101100100110001110111 aaaad

#1337500
0aaaaa

#1340000
1aaaaa
b111000101001011011001110101 aaaac
b101110011011001011111101001 aaaad

#1342500
0aaaaa

#1345000
1aaaaa
b110011001011100001110000001 aaaac
b101111110000011100110100110 aaaad

#1347500
0aaaaa

#1350000
1aaaaa
b11101001001000010100101111 aaaac
b101110001000100101010010001 aaaad

#1352500
0aaaaa

