Adder/trace.vcd
$date
     Jul 25, 2023       01:27:25
$end

$version
 SystemC 2.3.3-Accellera --- Jul 22 2023 01:28:55
$end

$timescale
     1 ps
$end

$scope module SystemC $end
$var wire   32  aaaaa  input1 [31:0]  $end
$var wire   32  aaaab  input2 [31:0]  $end
$var wire   32  aaaac  F [31:0]  $end
$upscope $end
$enddefinitions  $end

$comment
All initial values are dumped below at time 0 sec = 0 timescale units.
$end

$dumpvars
b0 aaaaa
b0 aaaab
b0 aaaac
$end

#20000
b1 aaaab
b1 aaaac

#40000
b10 aaaab
b10 aaaac

#60000
b11 aaaab
b11 aaaac

#80000
b100 aaaab
b100 aaaac

#100000
b101 aaaab
b101 aaaac

#120000
b110 aaaab
b110 aaaac

#140000
b111 aaaab
b111 aaaac

#160000
b1000 aaaab
b1000 aaaac

#180000
b1001 aaaab
b1001 aaaac

#200000
b1010 aaaab
b1010 aaaac

#220000
b1011 aaaab
b1011 aaaac

#240000
b1100 aaaab
b1100 aaaac

#260000
b1101 aaaab
b1101 aaaac

#280000
b1110 aaaab
b1110 aaaac

#300000
b1111 aaaab
b1111 aaaac

#320000
b10000 aaaab
b10000 aaaac

#340000
b10001 aaaab
b10001 aaaac

#360000
b10010 aaaab
b10010 aaaac

#380000
b10011 aaaab
b10011 aaaac

#400000
b10100 aaaab
b10100 aaaac

#420000
b10101 aaaab
b10101 aaaac

#440000
b10110 aaaab
b10110 aaaac

#460000
b10111 aaaab
b10111 aaaac

#480000
b11000 aaaab
b11000 aaaac

#500000
b11001 aaaab
b11001 aaaac

#520000
b11010 aaaab
b11010 aaaac

#540000
b11011 aaaab
b11011 aaaac

#560000
b11100 aaaab
b11100 aaaac

#580000
b11101 aaaab
b11101 aaaac

#600000
b11110 aaaab
b11110 aaaac

#620000
b11111 aaaab
b11111 aaaac

#640000
b100000 aaaab
b100000 aaaac

#660000
b100001 aaaab
b100001 aaaac

#680000
b100010 aaaab
b100010 aaaac

#700000
b100011 aaaab
b100011 aaaac

#720000
b100100 aaaab
b100100 aaaac

#740000
b100101 aaaab
b100101 aaaac

#760000
b100110 aaaab
b100110 aaaac

#780000
b100111 aaaab
b100111 aaaac

#800000
b101000 aaaab
b101000 aaaac

#820000
b101001 aaaab
b101001 aaaac

#840000
b101010 aaaab
b101010 aaaac

#860000
b101011 aaaab
b101011 aaaac

#880000
b101100 aaaab
b101100 aaaac

#900000
b101101 aaaab
b101101 aaaac

#920000
b101110 aaaab
b101110 aaaac

#940000
b101111 aaaab
b101111 aaaac

#960000
b110000 aaaab
b110000 aaaac

#980000
b110001 aaaab
b110001 aaaac

#1000000
b110010 aaaab
b110010 aaaac

#1020000
b110011 aaaab
b110011 aaaac

#1040000
b110100 aaaab
b110100 aaaac

#1060000
b110101 aaaab
b110101 aaaac

#1080000
b110110 aaaab
b110110 aaaac

#1100000
b110111 aaaab
b110111 aaaac

#1120000
b111000 aaaab
b111000 aaaac

#1140000
b111001 aaaab
b111001 aaaac

#1160000
b111010 aaaab
b111010 aaaac

#1180000
b111011 aaaab
b111011 aaaac

#1200000
b111100 aaaab
b111100 aaaac

#1220000
b111101 aaaab
b111101 aaaac

#1240000
b111110 aaaab
b111110 aaaac

#1260000
b111111 aaaab
b111111 aaaac

#1280000
b1000000 aaaab
b1000000 aaaac

#1300000
b1000001 aaaab
b1000001 aaaac

#1320000
b1000010 aaaab
b1000010 aaaac

#1340000
b1000011 aaaab
b1000011 aaaac

#1360000
b1000100 aaaab
b1000100 aaaac

#1380000
b1000101 aaaab
b1000101 aaaac

#1400000
b1000110 aaaab
b1000110 aaaac

#1420000
b1000111 aaaab
b1000111 aaaac

#1440000
b1001000 aaaab
b1001000 aaaac

#1460000
b1001001 aaaab
b1001001 aaaac

#1480000
b1001010 aaaab
b1001010 aaaac

#1500000
b1001011 aaaab
b1001011 aaaac

#1520000
b1001100 aaaab
b1001100 aaaac

#1540000
b1001101 aaaab
b1001101 aaaac

#1560000
b1001110 aaaab
b1001110 aaaac

#1580000
b1001111 aaaab
b1001111 aaaac

#1600000
b1010000 aaaab
b1010000 aaaac

#1620000
b1010001 aaaab
b1010001 aaaac

#1640000
b1010010 aaaab
b1010010 aaaac

#1660000
b1010011 aaaab
b1010011 aaaac

#1680000
b1010100 aaaab
b1010100 aaaac

#1700000
b1010101 aaaab
b1010101 aaaac

#1720000
b1010110 aaaab
b1010110 aaaac

#1740000
b1010111 aaaab
b1010111 aaaac

#1760000
b1011000 aaaab
b1011000 aaaac

#1780000
b1011001 aaaab
b1011001 aaaac

#1800000
b1011010 aaaab
b1011010 aaaac

#1820000
b1011011 aaaab
b1011011 aaaac

#1840000
b1011100 aaaab
b1011100 aaaac

#1860000
b1011101 aaaab
b1011101 aaaac

#1880000
b1011110 aaaab
b1011110 aaaac

#1900000
b1011111 aaaab
b1011111 aaaac

#1920000
b1100000 aaaab
b1100000 aaaac

#1940000
b1100001 aaaab
b1100001 aaaac

#1960000
b1100010 aaaab
b1100010 aaaac

#1980000
b1100011 aaaab
b1100011 aaaac

#2000000
b1 aaaaa
b0 aaaab
b1 aaaac

#2020000
b1 aaaab
b10 aaaac

#2040000
b10 aaaab
b11 aaaac

#2060000
b11 aaaab
b100 aaaac

#2080000
b100 aaaab
b101 aaaac

#2100000
b101 aaaab
b110 aaaac

#2120000
b110 aaaab
b111 aaaac

#2140000
b111 aaaab
b1000 aaaac

#2160000
b1000 aaaab
b1001 aaaac

#2180000
b1001 aaaab
b1010 aaaac

#2200000
b1010 aaaab
b1011 aaaac

#2220000
b1011 aaaab
b1100 aaaac

#2240000
b1100 aaaab
b1101 aaaac

#2260000
b1101 aaaab
b1110 aaaac

#2280000
b1110 aaaab
b1111 aaaac

#2300000
b1111 aaaab
b10000 aaaac

#2320000
b10000 aaaab
b10001 aaaac

#2340000
b10001 aaaab
b10010 aaaac

#2360000
b10010 aaaab
b10011 aaaac

#2380000
b10011 aaaab
b10100 aaaac

#2400000
b10100 aaaab
b10101 aaaac

#2420000
b10101 aaaab
b10110 aaaac

#2440000
b10110 aaaab
b10111 aaaac

#2460000
b10111 aaaab
b11000 aaaac

#2480000
b11000 aaaab
b11001 aaaac

#2500000
b11001 aaaab
b11010 aaaac

#2520000
b11010 aaaab
b11011 aaaac

#2540000
b11011 aaaab
b11100 aaaac

#2560000
b11100 aaaab
b11101 aaaac

#2580000
b11101 aaaab
b11110 aaaac

#2600000
b11110 aaaab
b11111 aaaac

#2620000
b11111 aaaab
b100000 aaaac

#2640000
b100000 aaaab
b100001 aaaac

#2660000
b100001 aaaab
b100010 aaaac

#2680000
b100010 aaaab
b100011 aaaac

#2700000
b100011 aaaab
b100100 aaaac

#2720000
b100100 aaaab
b100101 aaaac

#2740000
b100101 aaaab
b100110 aaaac

#2760000
b100110 aaaab
b100111 aaaac

#2780000
b100111 aaaab
b101000 aaaac

#2800000
b101000 aaaab
b101001 aaaac

#2820000
b101001 aaaab
b101010 aaaac

#2840000
b101010 aaaab
b101011 aaaac

#2860000
b101011 aaaab
b101100 aaaac

#2880000
b101100 aaaab
b101101 aaaac

#2900000
b101101 aaaab
b101110 aaaac

#2920000
b101110 aaaab
b101111 aaaac

#2940000
b101111 aaaab
b110000 aaaac

#2960000
b110000 aaaab
b110001 aaaac

#2980000
b110001 aaaab
b110010 aaaac

#3000000
b110010 aaaab
b110011 aaaac

#3020000
b110011 aaaab
b110100 aaaac

#3040000
b110100 aaaab
b110101 aaaac

#3060000
b110101 aaaab
b110110 aaaac

#3080000
b110110 aaaab
b110111 aaaac

#3100000
b110111 aaaab
b111000 aaaac

#3120000
b111000 aaaab
b111001 aaaac

#3140000
b111001 aaaab
b111010 aaaac

#3160000
b111010 aaaab
b111011 aaaac

#3180000
b111011 aaaab
b111100 aaaac

#3200000
b111100 aaaab
b111101 aaaac

#3220000
b111101 aaaab
b111110 aaaac

#3240000
b111110 aaaab
b111111 aaaac

#3260000
b111111 aaaab
b1000000 aaaac

#3280000
b1000000 aaaab
b1000001 aaaac

#3300000
b1000001 aaaab
b1000010 aaaac

#3320000
b1000010 aaaab
b1000011 aaaac

#3340000
b1000011 aaaab
b1000100 aaaac

#3360000
b1000100 aaaab
b1000101 aaaac

#3380000
b1000101 aaaab
b1000110 aaaac

#3400000
b1000110 aaaab
b1000111 aaaac

#3420000
b1000111 aaaab
b1001000 aaaac

#3440000
b1001000 aaaab
b1001001 aaaac

#3460000
b1001001 aaaab
b1001010 aaaac

#3480000
b1001010 aaaab
b1001011 aaaac

#3500000
b1001011 aaaab
b1001100 aaaac

#3520000
b1001100 aaaab
b1001101 aaaac

#3540000
b1001101 aaaab
b1001110 aaaac

#3560000
b1001110 aaaab
b1001111 aaaac

#3580000
b1001111 aaaab
b1010000 aaaac

#3600000
b1010000 aaaab
b1010001 aaaac

#3620000
b1010001 aaaab
b1010010 aaaac

#3640000
b1010010 aaaab
b1010011 aaaac

#3660000
b1010011 aaaab
b1010100 aaaac

#3680000
b1010100 aaaab
b1010101 aaaac

#3700000
b1010101 aaaab
b1010110 aaaac

#3720000
b1010110 aaaab
b1010111 aaaac

#3740000
b1010111 aaaab
b1011000 aaaac

#3760000
b1011000 aaaab
b1011001 aaaac

#3780000
b1011001 aaaab
b1011010 aaaac

#3800000
b1011010 aaaab
b1011011 aaaac

#3820000
b1011011 aaaab
b1011100 aaaac

#3840000
b1011100 aaaab
b1011101 aaaac

#3860000
b1011101 aaaab
b1011110 aaaac

#3880000
b1011110 aaaab
b1011111 aaaac

#3900000
b1011111 aaaab
b1100000 aaaac

#3920000
b1100000 aaaab
b1100001 aaaac

#3940000
b1100001 aaaab
b1100010 aaaac

#3960000
b1100010 aaaab
b1100011 aaaac

#3980000
b1100011 aaaab
b1100100 aaaac

#4000000
b10 aaaaa
b0 aaaab
b10 aaaac

#4020000
b1 aaaab
b11 aaaac

#4040000
b10 aaaab
b100 aaaac

#4060000
b11 aaaab
b101 aaaac

#4080000
b100 aaaab
b110 aaaac

#4100000
b101 aaaab
b111 aaaac

#4120000
b110 aaaab
b1000 aaaac

#4140000
b111 aaaab
b1001 aaaac

#4160000
b1000 aaaab
b1010 aaaac

#4180000
b1001 aaaab
b1011 aaaac

#4200000
b1010 aaaab
b1100 aaaac

#4220000
b1011 aaaab
b1101 aaaac

#4240000
b1100 aaaab
b1110 aaaac

#4260000
b1101 aaaab
b1111 aaaac

#4280000
b1110 aaaab
b10000 aaaac

#4300000
b1111 aaaab
b10001 aaaac

#4320000
b10000 aaaab
b10010 aaaac

#4340000
b10001 aaaab
b10011 aaaac

#4360000
b10010 aaaab
b10100 aaaac

#4380000
b10011 aaaab
b10101 aaaac

#4400000
b10100 aaaab
b10110 aaaac

#4420000
b10101 aaaab
b10111 aaaac

#4440000
b10110 aaaab
b11000 aaaac

#4460000
b10111 aaaab
b11001 aaaac

#4480000
b11000 aaaab
b11010 aaaac

#4500000
b11001 aaaab
b11011 aaaac

#4520000
b11010 aaaab
b11100 aaaac

#4540000
b11011 aaaab
b11101 aaaac

#4560000
b11100 aaaab
b11110 aaaac

#4580000
b11101 aaaab
b11111 aaaac

#4600000
b11110 aaaab
b100000 aaaac

#4620000
b11111 aaaab
b100001 aaaac

#4640000
b100000 aaaab
b100010 aaaac

#4660000
b100001 aaaab
b100011 aaaac

#4680000
b100010 aaaab
b100100 aaaac

#4700000
b100011 aaaab
b100101 aaaac

#4720000
b100100 aaaab
b100110 aaaac

#4740000
b100101 aaaab
b100111 aaaac

#4760000
b100110 aaaab
b101000 aaaac

#4780000
b100111 aaaab
b101001 aaaac

#4800000
b101000 aaaab
b101010 aaaac

#4820000
b101001 aaaab
b101011 aaaac

#4840000
b101010 aaaab
b101100 aaaac

#4860000
b101011 aaaab
b101101 aaaac

#4880000
b101100 aaaab
b101110 aaaac

#4900000
b101101 aaaab
b101111 aaaac

#4920000
b101110 aaaab
b110000 aaaac

#4940000
b101111 aaaab
b110001 aaaac

#4960000
b110000 aaaab
b110010 aaaac

#4980000
b110001 aaaab
b110011 aaaac

#5000000
b110010 aaaab
b110100 aaaac

#5020000
b110011 aaaab
b110101 aaaac

#5040000
b110100 aaaab
b110110 aaaac

#5060000
b110101 aaaab
b110111 aaaac

#5080000
b110110 aaaab
b111000 aaaac

#5100000
b110111 aaaab
b111001 aaaac

#5120000
b111000 aaaab
b111010 aaaac

#5140000
b111001 aaaab
b111011 aaaac

#5160000
b111010 aaaab
b111100 aaaac

#5180000
b111011 aaaab
b111101 aaaac

#5200000
b111100 aaaab
b111110 aaaac

#5220000
b111101 aaaab
b111111 aaaac

#5240000
b111110 aaaab
b1000000 aaaac

#5260000
b111111 aaaab
b1000001 aaaac

#5280000
b1000000 aaaab
b1000010 aaaac

#5300000
b1000001 aaaab
b1000011 aaaac

#5320000
b1000010 aaaab
b1000100 aaaac

#5340000
b1000011 aaaab
b1000101 aaaac

#5360000
b1000100 aaaab
b1000110 aaaac

#5380000
b1000101 aaaab
b1000111 aaaac

#5400000
b1000110 aaaab
b1001000 aaaac

#5420000
b1000111 aaaab
b1001001 aaaac

#5440000
b1001000 aaaab
b1001010 aaaac

#5460000
b1001001 aaaab
b1001011 aaaac

#5480000
b1001010 aaaab
b1001100 aaaac

#5500000
b1001011 aaaab
b1001101 aaaac

#5520000
b1001100 aaaab
b1001110 aaaac

#5540000
b1001101 aaaab
b1001111 aaaac

#5560000
b1001110 aaaab
b1010000 aaaac

#5580000
b1001111 aaaab
b1010001 aaaac

#5600000
b1010000 aaaab
b1010010 aaaac

#5620000
b1010001 aaaab
b1010011 aaaac

#5640000
b1010010 aaaab
b1010100 aaaac

#5660000
b1010011 aaaab
b1010101 aaaac

#5680000
b1010100 aaaab
b1010110 aaaac

#5700000
b1010101 aaaab
b1010111 aaaac

#5720000
b1010110 aaaab
b1011000 aaaac

#5740000
b1010111 aaaab
b1011001 aaaac

#5760000
b1011000 aaaab
b1011010 aaaac

#5780000
b1011001 aaaab
b1011011 aaaac

#5800000
b1011010 aaaab
b1011100 aaaac

#5820000
b1011011 aaaab
b1011101 aaaac

#5840000
b1011100 aaaab
b1011110 aaaac

#5860000
b1011101 aaaab
b1011111 aaaac

#5880000
b1011110 aaaab
b1100000 aaaac

#5900000
b1011111 aaaab
b1100001 aaaac

#5920000
b1100000 aaaab
b1100010 aaaac

#5940000
b1100001 aaaab
b1100011 aaaac

#5960000
b1100010 aaaab
b1100100 aaaac

#5980000
b1100011 aaaab
b1100101 aaaac

#6000000
b11 aaaaa
b0 aaaab
b11 aaaac

#6020000
b1 aaaab
b100 aaaac

#6040000
b10 aaaab
b101 aaaac

#6060000
b11 aaaab
b110 aaaac

#6080000
b100 aaaab
b111 aaaac

#6100000
b101 aaaab
b1000 aaaac

#6120000
b110 aaaab
b1001 aaaac

#6140000
b111 aaaab
b1010 aaaac

#6160000
b1000 aaaab
b1011 aaaac

#6180000
b1001 aaaab
b1100 aaaac

#6200000
b1010 aaaab
b1101 aaaac

#6220000
b1011 aaaab
b1110 aaaac

#6240000
b1100 aaaab
b1111 aaaac

#6260000
b1101 aaaab
b10000 aaaac

#6280000
b1110 aaaab
b10001 aaaac

#6300000
b1111 aaaab
b10010 aaaac

#6320000
b10000 aaaab
b10011 aaaac

#6340000
b10001 aaaab
b10100 aaaac

#6360000
b10010 aaaab
b10101 aaaac

#6380000
b10011 aaaab
b10110 aaaac

#6400000
b10100 aaaab
b10111 aaaac

#6420000
b10101 aaaab
b11000 aaaac

#6440000
b10110 aaaab
b11001 aaaac

#6460000
b10111 aaaab
b11010 aaaac

#6480000
b11000 aaaab
b11011 aaaac

#6500000
b11001 aaaab
b11100 aaaac

#6520000
b11010 aaaab
b11101 aaaac

#6540000
b11011 aaaab
b11110 aaaac

#6560000
b11100 aaaab
b11111 aaaac

#6580000
b11101 aaaab
b100000 aaaac

#6600000
b11110 aaaab
b100001 aaaac

#6620000
b11111 aaaab
b100010 aaaac

#6640000
b100000 aaaab
b100011 aaaac

#6660000
b100001 aaaab
b100100 aaaac

#6680000
b100010 aaaab
b100101 aaaac

#6700000
b100011 aaaab
b100110 aaaac

#6720000
b100100 aaaab
b100111 aaaac

#6740000
b100101 aaaab
b101000 aaaac

#6760000
b100110 aaaab
b101001 aaaac

#6780000
b100111 aaaab
b101010 aaaac

#6800000
b101000 aaaab
b101011 aaaac

#6820000
b101001 aaaab
b101100 aaaac

#6840000
b101010 aaaab
b101101 aaaac

#6860000
b101011 aaaab
b101110 aaaac

#6880000
b101100 aaaab
b101111 aaaac

#6900000
b101101 aaaab
b110000 aaaac

#6920000
b101110 aaaab
b110001 aaaac

#6940000
b101111 aaaab
b110010 aaaac

#6960000
b110000 aaaab
b110011 aaaac

#6980000
b110001 aaaab
b110100 aaaac

#7000000
b110010 aaaab
b110101 aaaac

#7020000
b110011 aaaab
b110110 aaaac

#7040000
b110100 aaaab
b110111 aaaac

#7060000
b110101 aaaab
b111000 aaaac

#7080000
b110110 aaaab
b111001 aaaac

#7100000
b110111 aaaab
b111010 aaaac

#7120000
b111000 aaaab
b111011 aaaac

#7140000
b111001 aaaab
b111100 aaaac

#7160000
b111010 aaaab
b111101 aaaac

#7180000
b111011 aaaab
b111110 aaaac

#7200000
b111100 aaaab
b111111 aaaac

#7220000
b111101 aaaab
b1000000 aaaac

#7240000
b111110 aaaab
b1000001 aaaac

#7260000
b111111 aaaab
b1000010 aaaac

#7280000
b1000000 aaaab
b1000011 aaaac

#7300000
b1000001 aaaab
b1000100 aaaac

#7320000
b1000010 aaaab
b1000101 aaaac

#7340000
b1000011 aaaab
b1000110 aaaac

#7360000
b1000100 aaaab
b1000111 aaaac

#7380000
b1000101 aaaab
b1001000 aaaac

#7400000
b1000110 aaaab
b1001001 aaaac

#7420000
b1000111 aaaab
b1001010 aaaac

#7440000
b1001000 aaaab
b1001011 aaaac

#7460000
b1001001 aaaab
b1001100 aaaac

#7480000
b1001010 aaaab
b1001101 aaaac

#7500000
b1001011 aaaab
b1001110 aaaac

#7520000
b1001100 aaaab
b1001111 aaaac

#7540000
b1001101 aaaab
b1010000 aaaac

#7560000
b1001110 aaaab
b1010001 aaaac

#7580000
b1001111 aaaab
b1010010 aaaac

#7600000
b1010000 aaaab
b1010011 aaaac

#7620000
b1010001 aaaab
b1010100 aaaac

#7640000
b1010010 aaaab
b1010101 aaaac

#7660000
b1010011 aaaab
b1010110 aaaac

#7680000
b1010100 aaaab
b1010111 aaaac

#7700000
b1010101 aaaab
b1011000 aaaac

#7720000
b1010110 aaaab
b1011001 aaaac

#7740000
b1010111 aaaab
b1011010 aaaac

#7760000
b1011000 aaaab
b1011011 aaaac

#7780000
b1011001 aaaab
b1011100 aaaac

#7800000
b1011010 aaaab
b1011101 aaaac

#7820000
b1011011 aaaab
b1011110 aaaac

#7840000
b1011100 aaaab
b1011111 aaaac

#7860000
b1011101 aaaab
b1100000 aaaac

#7880000
b1011110 aaaab
b1100001 aaaac

#7900000
b1011111 aaaab
b1100010 aaaac

#7920000
b1100000 aaaab
b1100011 aaaac

#7940000
b1100001 aaaab
b1100100 aaaac

#7960000
b1100010 aaaab
b1100101 aaaac

#7980000
b1100011 aaaab
b1100110 aaaac

#8000000
b100 aaaaa
b0 aaaab
b100 aaaac

#8020000
b1 aaaab
b101 aaaac

#8040000
b10 aaaab
b110 aaaac

#8060000
b11 aaaab
b111 aaaac

#8080000
b100 aaaab
b1000 aaaac

#8100000
b101 aaaab
b1001 aaaac

#8120000
b110 aaaab
b1010 aaaac

#8140000
b111 aaaab
b1011 aaaac

#8160000
b1000 aaaab
b1100 aaaac

#8180000
b1001 aaaab
b1101 aaaac

#8200000
b1010 aaaab
b1110 aaaac

#8220000
b1011 aaaab
b1111 aaaac

#8240000
b1100 aaaab
b10000 aaaac

#8260000
b1101 aaaab
b10001 aaaac

#8280000
b1110 aaaab
b10010 aaaac

#8300000
b1111 aaaab
b10011 aaaac

#8320000
b10000 aaaab
b10100 aaaac

#8340000
b10001 aaaab
b10101 aaaac

#8360000
b10010 aaaab
b10110 aaaac

#8380000
b10011 aaaab
b10111 aaaac

#8400000
b10100 aaaab
b11000 aaaac

#8420000
b10101 aaaab
b11001 aaaac

#8440000
b10110 aaaab
b11010 aaaac

#8460000
b10111 aaaab
b11011 aaaac

#8480000
b11000 aaaab
b11100 aaaac

#8500000
b11001 aaaab
b11101 aaaac

#8520000
b11010 aaaab
b11110 aaaac

#8540000
b11011 aaaab
b11111 aaaac

#8560000
b11100 aaaab
b100000 aaaac

#8580000
b11101 aaaab
b100001 aaaac

#8600000
b11110 aaaab
b100010 aaaac

#8620000
b11111 aaaab
b100011 aaaac

#8640000
b100000 aaaab
b100100 aaaac

#8660000
b100001 aaaab
b100101 aaaac

#8680000
b100010 aaaab
b100110 aaaac

#8700000
b100011 aaaab
b100111 aaaac

#8720000
b100100 aaaab
b101000 aaaac

#8740000
b100101 aaaab
b101001 aaaac

#8760000
b100110 aaaab
b101010 aaaac

#8780000
b100111 aaaab
b101011 aaaac

#8800000
b101000 aaaab
b101100 aaaac

#8820000
b101001 aaaab
b101101 aaaac

#8840000
b101010 aaaab
b101110 aaaac

#8860000
b101011 aaaab
b101111 aaaac

#8880000
b101100 aaaab
b110000 aaaac

#8900000
b101101 aaaab
b110001 aaaac

#8920000
b101110 aaaab
b110010 aaaac

#8940000
b101111 aaaab
b110011 aaaac

#8960000
b110000 aaaab
b110100 aaaac

#8980000
b110001 aaaab
b110101 aaaac

#9000000
b110010 aaaab
b110110 aaaac

#9020000
b110011 aaaab
b110111 aaaac

#9040000
b110100 aaaab
b111000 aaaac

#9060000
b110101 aaaab
b111001 aaaac

#9080000
b110110 aaaab
b111010 aaaac

#9100000
b110111 aaaab
b111011 aaaac

#9120000
b111000 aaaab
b111100 aaaac

#9140000
b111001 aaaab
b111101 aaaac

#9160000
b111010 aaaab
b111110 aaaac

#9180000
b111011 aaaab
b111111 aaaac

#9200000
b111100 aaaab
b1000000 aaaac

#9220000
b111101 aaaab
b1000001 aaaac

#9240000
b111110 aaaab
b1000010 aaaac

#9260000
b111111 aaaab
b1000011 aaaac

#9280000
b1000000 aaaab
b1000100 aaaac

#9300000
b1000001 aaaab
b1000101 aaaac

#9320000
b1000010 aaaab
b1000110 aaaac

#9340000
b1000011 aaaab
b1000111 aaaac

#9360000
b1000100 aaaab
b1001000 aaaac

#9380000
b1000101 aaaab
b1001001 aaaac

#9400000
b1000110 aaaab
b1001010 aaaac

#9420000
b1000111 aaaab
b1001011 aaaac

#9440000
b1001000 aaaab
b1001100 aaaac

#9460000
b1001001 aaaab
b1001101 aaaac

#9480000
b1001010 aaaab
b1001110 aaaac

#9500000
b1001011 aaaab
b1001111 aaaac

#9520000
b1001100 aaaab
b1010000 aaaac

#9540000
b1001101 aaaab
b1010001 aaaac

#9560000
b1001110 aaaab
b1010010 aaaac

#9580000
b1001111 aaaab
b1010011 aaaac

#9600000
b1010000 aaaab
b1010100 aaaac

#9620000
b1010001 aaaab
b1010101 aaaac

#9640000
b1010010 aaaab
b1010110 aaaac

#9660000
b1010011 aaaab
b1010111 aaaac

#9680000
b1010100 aaaab
b1011000 aaaac

#9700000
b1010101 aaaab
b1011001 aaaac

#9720000
b1010110 aaaab
b1011010 aaaac

#9740000
b1010111 aaaab
b1011011 aaaac

#9760000
b1011000 aaaab
b1011100 aaaac

#9780000
b1011001 aaaab
b1011101 aaaac

#9800000
b1011010 aaaab
b1011110 aaaac

#9820000
b1011011 aaaab
b1011111 aaaac

#9840000
b1011100 aaaab
b1100000 aaaac

#9860000
b1011101 aaaab
b1100001 aaaac

#9880000
b1011110 aaaab
b1100010 aaaac

#9900000
b1011111 aaaab
b1100011 aaaac

#9920000
b1100000 aaaab
b1100100 aaaac

#9940000
b1100001 aaaab
b1100101 aaaac

#9960000
b1100010 aaaab
b1100110 aaaac

#9980000
b1100011 aaaab
b1100111 aaaac

#10000000
b101 aaaaa
b0 aaaab
b101 aaaac

#10020000
b1 aaaab
b110 aaaac

#10040000
b10 aaaab
b111 aaaac

#10060000
b11 aaaab
b1000 aaaac

#10080000
b100 aaaab
b1001 aaaac

#10100000
b101 aaaab
b1010 aaaac

#10120000
b110 aaaab
b1011 aaaac

#10140000
b111 aaaab
b1100 aaaac

#10160000
b1000 aaaab
b1101 aaaac

#10180000
b1001 aaaab
b1110 aaaac

#10200000
b1010 aaaab
b1111 aaaac

#10220000
b1011 aaaab
b10000 aaaac

#10240000
b1100 aaaab
b10001 aaaac

#10260000
b1101 aaaab
b10010 aaaac

#10280000
b1110 aaaab
b10011 aaaac

#10300000
b1111 aaaab
b10100 aaaac

#10320000
b10000 aaaab
b10101 aaaac

#10340000
b10001 aaaab
b10110 aaaac

#10360000
b10010 aaaab
b10111 aaaac

#10380000
b10011 aaaab
b11000 aaaac

#10400000
b10100 aaaab
b11001 aaaac

#10420000
b10101 aaaab
b11010 aaaac

#10440000
b10110 aaaab
b11011 aaaac

#10460000
b10111 aaaab
b11100 aaaac

#10480000
b11000 aaaab
b11101 aaaac

#10500000
b11001 aaaab
b11110 aaaac

#10520000
b11010 aaaab
b11111 aaaac

#10540000
b11011 aaaab
b100000 aaaac

#10560000
b11100 aaaab
b100001 aaaac

#10580000
b11101 aaaab
b100010 aaaac

#10600000
b11110 aaaab
b100011 aaaac

#10620000
b11111 aaaab
b100100 aaaac

#10640000
b100000 aaaab
b100101 aaaac

#10660000
b100001 aaaab
b100110 aaaac

#10680000
b100010 aaaab
b100111 aaaac

#10700000
b100011 aaaab
b101000 aaaac

#10720000
b100100 aaaab
b101001 aaaac

#10740000
b100101 aaaab
b101010 aaaac

#10760000
b100110 aaaab
b101011 aaaac

#10780000
b100111 aaaab
b101100 aaaac

#10800000
b101000 aaaab
b101101 aaaac

#10820000
b101001 aaaab
b101110 aaaac

#10840000
b101010 aaaab
b101111 aaaac

#10860000
b101011 aaaab
b110000 aaaac

#10880000
b101100 aaaab
b110001 aaaac

#10900000
b101101 aaaab
b110010 aaaac

#10920000
b101110 aaaab
b110011 aaaac

#10940000
b101111 aaaab
b110100 aaaac

#10960000
b110000 aaaab
b110101 aaaac

#10980000
b110001 aaaab
b110110 aaaac

#11000000
b110010 aaaab
b110111 aaaac

#11020000
b110011 aaaab
b111000 aaaac

#11040000
b110100 aaaab
b111001 aaaac

#11060000
b110101 aaaab
b111010 aaaac

#11080000
b110110 aaaab
b111011 aaaac

#11100000
b110111 aaaab
b111100 aaaac

#11120000
b111000 aaaab
b111101 aaaac

#11140000
b111001 aaaab
b111110 aaaac

#11160000
b111010 aaaab
b111111 aaaac

#11180000
b111011 aaaab
b1000000 aaaac

#11200000
b111100 aaaab
b1000001 aaaac

#11220000
b111101 aaaab
b1000010 aaaac

#11240000
b111110 aaaab
b1000011 aaaac

#11260000
b111111 aaaab
b1000100 aaaac

#11280000
b1000000 aaaab
b1000101 aaaac

#11300000
b1000001 aaaab
b1000110 aaaac

#11320000
b1000010 aaaab
b1000111 aaaac

#11340000
b1000011 aaaab
b1001000 aaaac

#11360000
b1000100 aaaab
b1001001 aaaac

#11380000
b1000101 aaaab
b1001010 aaaac

#11400000
b1000110 aaaab
b1001011 aaaac

#11420000
b1000111 aaaab
b1001100 aaaac

#11440000
b1001000 aaaab
b1001101 aaaac

#11460000
b1001001 aaaab
b1001110 aaaac

#11480000
b1001010 aaaab
b1001111 aaaac

#11500000
b1001011 aaaab
b1010000 aaaac

#11520000
b1001100 aaaab
b1010001 aaaac

#11540000
b1001101 aaaab
b1010010 aaaac

#11560000
b1001110 aaaab
b1010011 aaaac

#11580000
b1001111 aaaab
b1010100 aaaac

#11600000
b1010000 aaaab
b1010101 aaaac

#11620000
b1010001 aaaab
b1010110 aaaac

#11640000
b1010010 aaaab
b1010111 aaaac

#11660000
b1010011 aaaab
b1011000 aaaac

#11680000
b1010100 aaaab
b1011001 aaaac

#11700000
b1010101 aaaab
b1011010 aaaac

#11720000
b1010110 aaaab
b1011011 aaaac

#11740000
b1010111 aaaab
b1011100 aaaac

#11760000
b1011000 aaaab
b1011101 aaaac

#11780000
b1011001 aaaab
b1011110 aaaac

#11800000
b1011010 aaaab
b1011111 aaaac

#11820000
b1011011 aaaab
b1100000 aaaac

#11840000
b1011100 aaaab
b1100001 aaaac

#11860000
b1011101 aaaab
b1100010 aaaac

#11880000
b1011110 aaaab
b1100011 aaaac

#11900000
b1011111 aaaab
b1100100 aaaac

#11920000
b1100000 aaaab
b1100101 aaaac

#11940000
b1100001 aaaab
b1100110 aaaac

#11960000
b1100010 aaaab
b1100111 aaaac

#11980000
b1100011 aaaab
b1101000 aaaac

#12000000
b110 aaaaa
b0 aaaab
b110 aaaac

#12020000
b1 aaaab
b111 aaaac

#12040000
b10 aaaab
b1000 aaaac

#12060000
b11 aaaab
b1001 aaaac

#12080000
b100 aaaab
b1010 aaaac

#12100000
b101 aaaab
b1011 aaaac

#12120000
b110 aaaab
b1100 aaaac

#12140000
b111 aaaab
b1101 aaaac

#12160000
b1000 aaaab
b1110 aaaac

#12180000
b1001 aaaab
b1111 aaaac

#12200000
b1010 aaaab
b10000 aaaac

#12220000
b1011 aaaab
b10001 aaaac

#12240000
b1100 aaaab
b10010 aaaac

#12260000
b1101 aaaab
b10011 aaaac

#12280000
b1110 aaaab
b10100 aaaac

#12300000
b1111 aaaab
b10101 aaaac

#12320000
b10000 aaaab
b10110 aaaac

#12340000
b10001 aaaab
b10111 aaaac

#12360000
b10010 aaaab
b11000 aaaac

#12380000
b10011 aaaab
b11001 aaaac

#12400000
b10100 aaaab
b11010 aaaac

#12420000
b10101 aaaab
b11011 aaaac

#12440000
b10110 aaaab
b11100 aaaac

#12460000
b10111 aaaab
b11101 aaaac

#12480000
b11000 aaaab
b11110 aaaac

#12500000
b11001 aaaab
b11111 aaaac

