Lab4/RESULT.vcd
$date
     Apr 03, 2024       23:55:01
$end

$version
 SystemC 2.3.4-Accellera --- Mar  4 2024 05:28:24
$end

$timescale
     1 ps
$end

$scope module SystemC $end
$var wire    1  aaaaa  clk       $end
$var wire    1  aaaab  rst       $end
$var wire   32  aaaac  x [31:0]  $end
$var wire   32  aaaad  y [31:0]  $end
$upscope $end
$enddefinitions  $end

$comment
All initial values are dumped below at time 0 sec = 0 timescale units.
$end

$dumpvars
1aaaaa
0aaaab
b0 aaaac
b0 aaaad
$end

#2500
0aaaaa

#5000
1aaaaa

#7500
0aaaaa

#10000
1aaaaa
1aaaab
b100000000000000000000000000 aaaac
b1111000011110000000000 aaaad

#12500
0aaaaa

#15000
1aaaaa
b110001111001110100110011100 aaaac
b100110100010101101000001 aaaad

#17500
0aaaaa

#20000
1aaaaa
b11010110011110010100101110 aaaac
b110011001010000111110011 aaaad

#22500
0aaaaa

#25000
1aaaaa
b100010110001000010010011101 aaaac
b1000011100001001011101000 aaaad

#27500
0aaaaa

#30000
1aaaaa
b111011010100000100111100110 aaaac
b1011111011011100010110011 aaaad

#32500
0aaaaa

#35000
1aaaaa
b100111001011100011101001100 aaaac
b1110001110111100011011000 aaaad

#37500
0aaaaa

#40000
1aaaaa
b100011011101111110011010101 aaaac
b10000010100011110000101001 aaaad

#42500
0aaaaa

#45000
1aaaaa
b111110011110011000000111000 aaaac
b10011111111101010100100000 aaaad

#47500
0aaaaa

#50000
1aaaaa
b110000000000000000000000000 aaaac
b10110110100010111100100000 aaaad

#52500
0aaaaa

#55000
1aaaaa
b100000111010010001010111111 aaaac
b11000110000010000111011110 aaaad

#57500
0aaaaa

#60000
1aaaaa
b111010000110001000010100010 aaaac
b11100001010111110011000110 aaaad

#62500
0aaaaa

#65000
1aaaaa
b110011011011010010101110111 aaaac
b11111001100100100111100100 aaaad

#67500
0aaaaa

#70000
1aaaaa
b11011010100000100111100110 aaaac
b100000110011011001110101111 aaaad

#72500
0aaaaa

#75000
1aaaaa
b101111000000110001011001000 aaaac
b100011100100011000110011111 aaaad

#77500
0aaaaa

#80000
1aaaaa
b110001011011111100011111011 aaaac
b100110011110011111111100111 aaaad

#82500
0aaaaa

#85000
1aaaaa
b10100010101101110000100011 aaaac
b100111101011000100011110000 aaaad

#87500
0aaaaa

#90000
1aaaaa
b11111111111111111111111111 aaaac
b101001100011100010011110000 aaaad

#92500
0aaaaa

#95000
1aaaaa
b101011101010010001111011011 aaaac
b101010001111011011111100111 aaaad

#97500
0aaaaa

#100000
1aaaaa
b1110100100000011100000011 aaaac
b101000001010011001001011101 aaaad

#102500
0aaaaa

#105000
1aaaaa
b10000111111001110100110110 aaaac
b100111100101011010110111011 aaaad

#107500
0aaaaa

#110000
1aaaaa
b100100101011111011000011001 aaaac
b100111101100101001011111011 aaaad

#112500
0aaaaa

#115000
1aaaaa
b1100100100101101010000111 aaaac
b100100111100101100000010001 aaaad

#117500
0aaaaa

#120000
1aaaaa
b101111001110111101011100 aaaac
b100010111111011010100000101 aaaad

#122500
0aaaaa

#125000
1aaaaa
b11111000101101110100111111 aaaac
b100010101110111011011110110 aaaad

#127500
0aaaaa

#130000
1aaaaa
b10000000000000000000000000 aaaac
b11111111111111101111111111 aaaad

#132500
0aaaaa

#135000
1aaaaa
b1100001100111111000110 aaaac
b11101010001000000100000111 aaaad

#137500
0aaaaa

#140000
1aaaaa
b11100100010000001100101001 aaaac
b11101000000100001011111000 aaaad

#142500
0aaaaa

#145000
1aaaaa
b11000110100011100010110010 aaaac
b11011000011001111111101100 aaaad

#147500
0aaaaa

#150000
1aaaaa
b100101011111011000011001 aaaac
b11000010011010010100000010 aaaad

#152500
0aaaaa

#155000
1aaaaa
b11101001110111101101100001 aaaac
b11000011010100001001000010 aaaad

#157500
0aaaaa

#160000
1aaaaa
b100101001100001101011010000 aaaac
b10111110101100010110100000 aaaad

#162500
0aaaaa

#165000
1aaaaa
b1110000110001011001100010 aaaac
b10101110000100000000010110 aaaad

#167500
0aaaaa

#170000
1aaaaa
b11111111111111111111111110 aaaac
b10110011100011001100001101 aaaad

#172500
0aaaaa

#175000
1aaaaa
b110001111001110100110011100 aaaac
b10111011111110011001001111 aaaad

#177500
0aaaaa

#180000
1aaaaa
b11010110011110010100101110 aaaac
b10110100000010111000001010 aaaad

#182500
0aaaaa

#185000
1aaaaa
b100010110001000010010011101 aaaac
b10111101100011010101001000 aaaad

#187500
0aaaaa

#190000
1aaaaa
b111011010100000100111100110 aaaac
b11010001011110000100000010 aaaad

#192500
0aaaaa

#195000
1aaaaa
b100111001011100011101001100 aaaac
b11010010101001001011110010 aaaad

#197500
0aaaaa

#200000
1aaaaa
b100011011101111110011010101 aaaac
b11011101011010101101100010 aaaad

#202500
0aaaaa

#205000
1aaaaa
b111110011110011000000111000 aaaac
b11111000000010011101000000 aaaad

#207500
0aaaaa

#210000
1aaaaa
b101111111111111111111111111 aaaac
b11111111111111101111111111 aaaad

#212500
0aaaaa

#215000
1aaaaa
b100000111010010001010111111 aaaac
b100000111111101000010111101 aaaad

#217500
0aaaaa

#220000
1aaaaa
b111010000110001000010100010 aaaac
b100100010100100110010011011 aaaad

#222500
0aaaaa

#225000
1aaaaa
b110011011011010010101110111 aaaac
b100101101010110010100001100 aaaad

#227500
0aaaaa

#230000
1aaaaa
b11011010100000100111100110 aaaac
b100101110100001011011111011 aaaad

#232500
0aaaaa

#235000
1aaaaa
b101111000000110001011001000 aaaac
b101000010011100001010110101 aaaad

#237500
0aaaaa

#240000
1aaaaa
b110001011011111100011111011 aaaac
b101001011111100100111110011 aaaad

#242500
0aaaaa

#245000
1aaaaa
b10100010101101110000100011 aaaac
b101000100000001000110101110 aaaad

#247500
0aaaaa

#250000
1aaaaa
b11111111111111111111111111 aaaac
b101001100011100010011110000 aaaad

#252500
0aaaaa

#255000
1aaaaa
b101011101010010001111011011 aaaac
b101010001111011011111100111 aaaad

#257500
0aaaaa

#260000
1aaaaa
b1110100100000011100000011 aaaac
b101000001010011001001011101 aaaad

#262500
0aaaaa

#265000
1aaaaa
b10000111111001110100110110 aaaac
b100111100101011010110111011 aaaad

#267500
0aaaaa

#270000
1aaaaa
b100100101011111011000011001 aaaac
b100111101100101001011111011 aaaad

#272500
0aaaaa

#275000
1aaaaa
b1100100100101101010000111 aaaac
b100100111100101100000010001 aaaad

#277500
0aaaaa

#280000
1aaaaa
b101111001110111101011100 aaaac
b100010111111011010100000101 aaaad

#282500
0aaaaa

#285000
1aaaaa
b11111000101101110100111111 aaaac
b100010101110111011011110110 aaaad

#287500
0aaaaa

#290000
1aaaaa
b10000000000000000000000000 aaaac
b11111111111111101111111111 aaaad

#292500
0aaaaa

#295000
1aaaaa
b1100001100111111000110 aaaac
b11101010001000000100000111 aaaad

#297500
0aaaaa

#300000
1aaaaa
b11100100010000001100101001 aaaac
b11101000000100001011111000 aaaad

#302500
0aaaaa

#305000
1aaaaa
b11000110100011100010110010 aaaac
b11011000011001111111101100 aaaad

#307500
0aaaaa

#310000
1aaaaa
b100101011111011000011001 aaaac
b11000010011010010100000010 aaaad

#312500
0aaaaa

#315000
1aaaaa
b11101001110111101101100001 aaaac
b11000011010100001001000010 aaaad

#317500
0aaaaa

#320000
1aaaaa
b100101001100001101011010000 aaaac
b10111110101100010110100000 aaaad

#322500
0aaaaa

#325000
1aaaaa
b1110000110001011001100010 aaaac
b10101110000100000000010110 aaaad

