Lab3/RESULT.vcd
$date
     Mar 21, 2024       10:30:48
$end

$version
 SystemC 2.3.4-Accellera --- Mar  4 2024 05:28:24
$end

$timescale
     1 ps
$end

$scope module SystemC $end
$var wire    1  aaaaa  Half_adder_A       $end
$var wire    1  aaaab  Half_adder_B       $end
$var wire    1  aaaac  Half_adder_Sum       $end
$var wire    1  aaaad  Half_adder_Carry       $end
$var wire    1  aaaae  Full_adder_A       $end
$var wire    1  aaaaf  Full_adder_B       $end
$var wire    1  aaaag  Full_adder_Cin       $end
$var wire    1  aaaah  Full_adder_Sum       $end
$var wire    1  aaaai  Full_adder_Cout       $end
$upscope $end
$enddefinitions  $end

$comment
All initial values are dumped below at time 0 sec = 0 timescale units.
$end

$dumpvars
0aaaaa
0aaaab
0aaaac
0aaaad
0aaaae
0aaaaf
0aaaag
0aaaah
0aaaai
$end

#10000
1aaaab
1aaaac

#20000
1aaaaa
0aaaab

#30000
1aaaab
0aaaac
1aaaad

#40000
0aaaaa
0aaaab
0aaaad

#60000
1aaaag
1aaaah

#70000
1aaaaf
0aaaag

#80000
1aaaag
0aaaah
1aaaai

#90000
1aaaae
0aaaaf
0aaaag
1aaaah
0aaaai

#100000
1aaaag
0aaaah
1aaaai

#110000
1aaaaf
0aaaag

#120000
1aaaag
1aaaah

#130000
0aaaae
0aaaaf
0aaaag
0aaaah
0aaaai

